06_Rb_spectroscopy/data2/TEK00003.CSV

Model,TBS2074B
Firmware Version,v1.31.16

Point Format,Y,,,,,Point Format,Y
Horizontal Units,S,,,,,Horizontal Units,S
Horizontal Scale,0.0002,,,,,Horizontal Scale,0.0002
Sample Interval,1.6e-06,,,,,Sample Interval,1.6e-06
Filter Frequency,2e+08,,,,,Filter Frequency,2e+08
Record Length,2000,,,,,Record Length,2000
Gating,0.0% to 100.0%,0.0% to 100.0%,0.0% to 100.0%,0.0% to 100.0%,,Gating,0.0% to 100.0%
Probe Attenuation,10,10,1,1,,Probe Attenuation,1
Vertical Units,V,V,V,V,,Vertical Units,V
Vertical Offset,0,0,0,0,,Vertical Offset,0
Vertical Scale,5,0.01,0.5,1,,Vertical Scale,5
Label,,,,,,Label,
TIME,CH1,CH2,CH3,CH4,,TIME,MATH
-6.560e-04,-2.95781,0.0728,-2.07938,0.0442187,,-6.560e-04,-2.88672
-6.544e-04,-2.95156,0.0728,-2.07023,0.0437499,,-6.544e-04,-2.88047
-6.528e-04,-2.95,0.0728,-2.07008,0.0470312,,-6.528e-04,-2.87891
-6.512e-04,-2.94062,0.0728,-2.07,0.0599999,,-6.512e-04,-2.86953
-6.496e-04,-2.94297,0.0728,-2.07,0.0599999,,-6.496e-04,-2.87188
-6.480e-04,-2.93281,0.0728,-2.06992,0.0464062,,-6.480e-04,-2.86172
-6.464e-04,-2.94453,0.0728,-2.06695,0.0440624,,-6.464e-04,-2.87344
-6.448e-04,-2.94219,0.0728,-2.06547,0.0239062,,-6.448e-04,-2.87109
-6.432e-04,-2.93594,0.0728,-2.06289,0.0456249,,-6.432e-04,-2.86484
-6.416e-04,-2.93125,0.0728,-2.06234,0.0467187,,-6.416e-04,-2.86016
-6.400e-04,-2.93672,0.0728,-2.06234,0.0465624,,-6.400e-04,-2.86563
-6.384e-04,-2.93359,0.0728,-2.06227,0.0446874,,-6.384e-04,-2.8625
-6.368e-04,-2.92891,0.0728,-2.05195,0.0478124,,-6.368e-04,-2.85781
-6.352e-04,-2.92109,0.0728,-2.05914,0.0437499,,-6.352e-04,-2.85
-6.336e-04,-2.93828,0.0728,-2.05734,0.0435937,,-6.336e-04,-2.86719
-6.320e-04,-2.91719,0.0728,-2.05,0.0459374,,-6.320e-04,-2.84609
-6.304e-04,-3.02969,0.0728,-2.05,0.0428124,,-6.304e-04,-2.95859
-6.288e-04,-2.91562,0.0728,-2.04992,0.0446874,,-6.288e-04,-2.84453
-6.272e-04,-2.90547,0.0728,-2.05,0.0453124,,-6.272e-04,-2.83438
-6.256e-04,-2.90859,0.0728,-2.05,0.0437499,,-6.256e-04,-2.8375
-6.240e-04,-2.89922,0.0728,-2.04672,0.0442187,,-6.240e-04,-2.82812
-6.224e-04,-2.9,0.0728,-2.04359,0.0440624,,-6.224e-04,-2.82891
-6.208e-04,-2.98125,0.0728,-2.04336,0.0424999,,-6.208e-04,-2.91016
-6.192e-04,-2.89922,0.0728,-2.04242,0.0440624,,-6.192e-04,-2.82812
-6.176e-04,-2.89922,0.0728,-2.04117,0.0420312,,-6.176e-04,-2.82812
-6.160e-04,-2.9,0.0728,-2.04016,0.0420312,,-6.160e-04,-2.82891
-6.144e-04,-2.89922,0.0728,-2.03742,0.0435937,,-6.144e-04,-2.82812
-6.128e-04,-2.89922,0.0728,-2.03,0.0232812,,-6.128e-04,-2.82812
-6.112e-04,-2.89922,0.0728,-2.03008,0.0245312,,-6.112e-04,-2.82812
-6.096e-04,-2.89922,0.0728,-2.03,0.0429687,,-6.096e-04,-2.82812
-6.080e-04,-2.89922,0.0728,-2.03,0.0456249,,-6.080e-04,-2.82812
-6.064e-04,-2.89922,0.0728,-2.03,0.0437499,,-6.064e-04,-2.82812
-6.048e-04,-2.89922,0.0728,-2.02859,0.0595312,,-6.048e-04,-2.82812
-6.032e-04,-2.89922,0.0728,-2.02656,0.0439062,,-6.032e-04,-2.82812
-6.016e-04,-2.89922,0.0728,-2.02461,0.0443749,,-6.016e-04,-2.82812
-6.000e-04,-2.89922,0.0728,-2.02992,0.0440624,,-6.000e-04,-2.82812
-5.984e-04,-2.89922,0.0728,-2.02063,0.0439062,,-5.984e-04,-2.82812
-5.968e-04,-2.89922,0.0728,-2.02,0.0446874,,-5.968e-04,-2.82812
-5.952e-04,-2.89922,0.0728,-2.01727,0.0460937,,-5.952e-04,-2.82812
-5.936e-04,-2.89922,0.0728,-2.01328,0.0235937,,-5.936e-04,-2.82812
-5.920e-04,-2.89922,0.0728,-2.01,0.0467187,,-5.920e-04,-2.82812
-5.904e-04,-2.9,0.0728,-2.01,0.0445312,,-5.904e-04,-2.82891
-5.888e-04,-2.89922,0.0728,-2.01,0.0451562,,-5.888e-04,-2.82812
-5.872e-04,-2.89922,0.0728,-2.01,0.0457812,,-5.872e-04,-2.82812
-5.856e-04,-2.89922,0.0728,-2.00695,0.0448437,,-5.856e-04,-2.82812
-5.840e-04,-2.89922,0.0728,-2.00453,0.0453124,,-5.840e-04,-2.82812
-5.824e-04,-2.89922,0.0728,-2.00313,0.0451562,,-5.824e-04,-2.82812
-5.808e-04,-2.89922,0.0728,-2.00992,0.0457812,,-5.808e-04,-2.82812
-5.792e-04,-2.89922,0.0728,-2.00227,0.0453124,,-5.792e-04,-2.82812
-5.776e-04,-2.89922,0.0728,-2.0018,0.0599999,,-5.776e-04,-2.82812
-5.760e-04,-2.89922,0.0728,-1.99883,0.0465624,,-5.760e-04,-2.82812
-5.744e-04,-2.89922,0.0728,-1.99672,0.0432812,,-5.744e-04,-2.82812
-5.728e-04,-2.89922,0.0728,-1.99016,0.0220312,,-5.728e-04,-2.82812
-5.712e-04,-2.9,0.0728,-1.99,0.0249999,,-5.712e-04,-2.82891
-5.696e-04,-2.89922,0.0728,-1.99,0.0440624,,-5.696e-04,-2.82812
-5.680e-04,-2.89922,0.0728,-1.99,0.0457812,,-5.680e-04,-2.82812
-5.664e-04,-2.89922,0.0728,-1.99,0.0449999,,-5.664e-04,-2.82812
-5.648e-04,-2.89922,0.0728,-1.98602,0.0601562,,-5.648e-04,-2.82812
-5.632e-04,-2.89922,0.0728,-1.9843,0.0449999,,-5.632e-04,-2.82812
-5.616e-04,-2.89922,0.0728,-1.98234,0.0424999,,-5.616e-04,-2.82812
-5.600e-04,-2.89922,0.0728,-1.98094,0.0599999,,-5.600e-04,-2.82812
-5.584e-04,-2.89922,0.0728,-1.98031,0.0457812,,-5.584e-04,-2.82812
-5.568e-04,-2.89922,0.0728,-1.97719,0.0453124,,-5.568e-04,-2.82812
-5.552e-04,-2.89922,0.0728,-1.97391,0.0234374,,-5.552e-04,-2.82812
-5.536e-04,-2.89922,0.0728,-1.97,0.0465624,,-5.536e-04,-2.82812
-5.520e-04,-2.89922,0.0728,-1.97,0.0443749,,-5.520e-04,-2.82812
-5.504e-04,-2.89922,0.0728,-1.97,0.0434374,,-5.504e-04,-2.82812
-5.488e-04,-2.89922,0.0728,-1.97,0.0437499,,-5.488e-04,-2.82812
-5.472e-04,-2.89922,0.0728,-1.9682,0.0440624,,-5.472e-04,-2.82812
-5.456e-04,-2.89922,0.0728,-1.96438,0.0598437,,-5.456e-04,-2.82812
-5.440e-04,-2.89922,0.0728,-1.96375,0.0456249,,-5.440e-04,-2.82812
-5.424e-04,-2.89922,0.0728,-1.9625,0.0442187,,-5.424e-04,-2.82812
-5.408e-04,-2.89922,0.0728,-1.96203,0.0445312,,-5.408e-04,-2.82812
-5.392e-04,-2.89922,0.0728,-1.95961,0.0442187,,-5.392e-04,-2.82812
-5.376e-04,-2.89531,0.0728,-1.95008,0.0464062,,-5.376e-04,-2.82422
-5.360e-04,-2.87656,0.0728,-1.95242,0.0431249,,-5.360e-04,-2.80547
-5.344e-04,-2.89922,0.0728,-1.95,0.0459374,,-5.344e-04,-2.82812
-5.328e-04,-2.88359,0.0728,-1.94992,0.0459374,,-5.328e-04,-2.8125
-5.312e-04,-2.89922,0.0728,-1.94992,0.0451562,,-5.312e-04,-2.82812
-5.296e-04,-2.89922,0.0728,-1.94953,0.0440624,,-5.296e-04,-2.82812
-5.280e-04,-2.86016,0.0728,-1.94531,0.0456249,,-5.280e-04,-2.78906
-5.264e-04,-2.85625,0.0728,-1.94516,0.0468749,,-5.264e-04,-2.78516
-5.248e-04,-2.89922,0.0728,-1.94305,0.0437499,,-5.248e-04,-2.82812
-5.232e-04,-2.84766,0.0728,-1.94305,0.0454687,,-5.232e-04,-2.77656
-5.216e-04,-2.89922,0.0728,-1.94133,0.0445312,,-5.216e-04,-2.82812
-5.200e-04,-2.89687,0.0728,-1.94008,0.0446874,,-5.200e-04,-2.82578
-5.184e-04,-2.9,0.0728,-1.93781,0.0460937,,-5.184e-04,-2.82891
-5.168e-04,-2.89766,0.0728,-1.93,0.0473437,,-5.168e-04,-2.82656
-5.152e-04,-2.82891,0.0728,-1.93,0.0462499,,-5.152e-04,-2.75781
-5.136e-04,-2.83594,0.0728,-1.93,0.0429687,,-5.136e-04,-2.76484
-5.120e-04,-2.81875,0.0728,-1.93,0.0445312,,-5.120e-04,-2.74766
-5.104e-04,-2.82656,0.0728,-1.93,0.0446874,,-5.104e-04,-2.75547
-5.088e-04,-2.83203,0.0728,-1.9257,0.0440624,,-5.088e-04,-2.76094
-5.072e-04,-2.81172,0.0728,-1.9243,0.0434374,,-5.072e-04,-2.74063
-5.056e-04,-2.80625,0.0728,-1.92328,0.0457812,,-5.056e-04,-2.73516
-5.040e-04,-2.8125,0.0728,-1.92125,0.0599999,,-5.040e-04,-2.74141
-5.024e-04,-2.79453,0.0728,-1.91859,0.0437499,,-5.024e-04,-2.72344
-5.008e-04,-2.8875,0.0728,-1.91539,0.0445312,,-5.008e-04,-2.81641
-4.992e-04,-2.80781,0.0728,-1.91008,0.0459374,,-4.992e-04,-2.73672
-4.976e-04,-2.79844,0.0728,-1.91,0.0470312,,-4.976e-04,-2.72734
-4.960e-04,-2.79844,0.0728,-1.91,0.0599999,,-4.960e-04,-2.72734
-4.944e-04,-2.78594,0.0728,-1.91,0.0448437,,-4.944e-04,-2.71484
-4.928e-04,-2.77969,0.0728,-1.90734,0.0462499,,-4.928e-04,-2.70859
-4.912e-04,-2.78437,0.0728,-1.90563,0.0445312,,-4.912e-04,-2.71328
-4.896e-04,-2.77031,0.0728,-1.90992,0.0446874,,-4.896e-04,-2.69922
-4.880e-04,-2.75859,0.0728,-1.90258,0.0467187,,-4.880e-04,-2.6875
-4.864e-04,-2.76094,0.0728,-1.90109,0.0468749,,-4.864e-04,-2.68984
-4.848e-04,-2.75156,0.0728,-1.89891,0.0598437,,-4.848e-04,-2.68047
-4.832e-04,-2.84844,0.0728,-1.89484,0.0242187,,-4.832e-04,-2.77734
-4.816e-04,-2.73203,0.0728,-1.89,0.0445312,,-4.816e-04,-2.66094
-4.800e-04,-2.72578,0.0728,-1.89,0.0484374,,-4.800e-04,-2.65469
-4.784e-04,-2.71328,0.0728,-1.89,0.0489062,,-4.784e-04,-2.64219
-4.768e-04,-2.70547,0.0728,-1.89,0.0459374,,-4.768e-04,-2.63438
-4.752e-04,-2.69922,0.0728,-1.88727,0.0474999,,-4.752e-04,-2.62813
-4.736e-04,-2.69922,0.0728,-1.88547,0.0251562,,-4.736e-04,-2.62813
-4.720e-04,-2.69922,0.0728,-1.88398,0.0460937,,-4.720e-04,-2.62813
-4.704e-04,-2.69922,0.0728,-1.88336,0.0457812,,-4.704e-04,-2.62813
-4.688e-04,-2.7,0.0728,-1.88195,0.0443749,,-4.688e-04,-2.62891
-4.672e-04,-2.69922,0.0728,-1.88039,0.0443749,,-4.672e-04,-2.62813
-4.656e-04,-2.69922,0.0728,-1.87641,0.0443749,,-4.656e-04,-2.62813
-4.640e-04,-2.69922,0.0728,-1.87234,0.0457812,,-4.640e-04,-2.62813
-4.624e-04,-2.69922,0.0728,-1.87008,0.0457812,,-4.624e-04,-2.62813
-4.608e-04,-2.69922,0.0728,-1.87,0.0599999,,-4.608e-04,-2.62813
-4.592e-04,-2.69922,0.0728,-1.87,0.0598437,,-4.592e-04,-2.62813
-4.576e-04,-2.69922,0.0728,-1.86836,0.0454687,,-4.576e-04,-2.62813
-4.560e-04,-2.69844,0.0728,-1.86531,0.0429687,,-4.560e-04,-2.62734
-4.544e-04,-2.69922,0.0728,-1.865,0.0434374,,-4.544e-04,-2.62813
-4.528e-04,-2.66094,0.0728,-1.86297,0.0476562,,-4.528e-04,-2.58984
-4.512e-04,-2.69531,0.0728,-1.86203,0.0429687,,-4.512e-04,-2.62422
-4.496e-04,-2.69844,0.0728,-1.86031,0.0476562,,-4.496e-04,-2.62734
-4.480e-04,-2.61875,0.0728,-1.85008,0.0457812,,-4.480e-04,-2.54766
-4.464e-04,-2.69141,0.0728,-1.85,0.0473437,,-4.464e-04,-2.62031
-4.448e-04,-2.60547,0.0728,-1.85,0.0457812,,-4.448e-04,-2.53438
-4.432e-04,-2.58984,0.0728,-1.85,0.0454687,,-4.432e-04,-2.51875
-4.416e-04,-2.66562,0.0728,-1.85,0.0453124,,-4.416e-04,-2.59453
-4.400e-04,-2.56875,0.0728,-1.84875,0.0449999,,-4.400e-04,-2.49766
-4.384e-04,-2.53984,0.0728,-1.84477,0.0448437,,-4.384e-04,-2.46875
-4.368e-04,-2.50937,0.0728,-1.84305,0.0442187,,-4.368e-04,-2.43828
-4.352e-04,-2.5,0.0728,-1.84992,0.0457812,,-4.352e-04,-2.42891
-4.336e-04,-2.49922,0.0728,-1.84281,0.0440624,,-4.336e-04,-2.42813
-4.320e-04,-2.49922,0.0728,-1.83125,0.0454687,,-4.320e-04,-2.42813
-4.304e-04,-2.5,0.0728,-1.83039,0.0451562,,-4.304e-04,-2.42891
-4.288e-04,-2.5,0.0728,-1.83289,0.0443749,,-4.288e-04,-2.42891
-4.272e-04,-2.49922,0.0728,-1.83,0.0228124,,-4.272e-04,-2.42813
-4.256e-04,-2.49922,0.0728,-1.83,0.0446874,,-4.256e-04,-2.42813
-4.240e-04,-2.5,0.0727984,-1.83,0.0451562,,-4.240e-04,-2.42969
-4.224e-04,-2.49922,0.0727953,-1.82734,0.0473437,,-4.224e-04,-2.42891
-4.208e-04,-2.49922,0.0727984,-1.82406,0.0453124,,-4.208e-04,-2.42891
-4.192e-04,-2.5,0.0727969,-1.82445,0.0454687,,-4.192e-04,-2.42969
-4.176e-04,-2.49922,0.0727891,-1.82398,0.0465624,,-4.176e-04,-2.42891
-4.160e-04,-2.45625,0.072775,-1.82992,0.0599999,,-4.160e-04,-2.38594
-4.144e-04,-2.42891,0.0727703,-1.82188,0.0442187,,-4.144e-04,-2.35859
-4.128e-04,-2.48984,0.0727578,-1.82,0.0457812,,-4.128e-04,-2.41953
-4.112e-04,-2.41172,0.0727469,-1.81742,0.0465624,,-4.112e-04,-2.34141
-4.096e-04,-2.39219,0.0726875,-1.8118,0.0456249,,-4.096e-04,-2.32187
-4.080e-04,-2.34375,0.0726141,-1.81,0.0435937,,-4.080e-04,-2.27344
-4.064e-04,-2.32266,0.07265,-1.81,0.0453124,,-4.064e-04,-2.25234
-4.048e-04,-2.29922,0.0726,-1.80992,0.0462499,,-4.048e-04,-2.22891
-4.032e-04,-2.29922,0.0726016,-1.80766,0.0474999,,-4.032e-04,-2.22891
-4.016e-04,-2.29922,0.0725984,-1.80477,0.0599999,,-4.016e-04,-2.22891
-4.000e-04,-2.3,0.0725984,-1.80406,0.0459374,,-4.000e-04,-2.22969
-3.984e-04,-2.29922,0.0725422,-1.80273,0.0429687,,-3.984e-04,-2.22891
-3.968e-04,-2.29922,0.0724266,-1.80227,0.0443749,,-3.968e-04,-2.22891
-3.952e-04,-2.29766,0.0723094,-1.79773,0.0465624,,-3.952e-04,-2.22734
-3.936e-04,-2.22812,0.0721281,-1.79,0.0246874,,-3.936e-04,-2.15781
-3.920e-04,-2.18594,0.0718016,-1.79008,0.0440624,,-3.920e-04,-2.11641
-3.904e-04,-2.23437,0.0719812,-1.79,0.0481249,,-3.904e-04,-2.16484
-3.888e-04,-2.10156,0.0717875,-1.79,0.0446874,,-3.888e-04,-2.03203
-3.872e-04,-2.1,0.0717484,-1.78828,0.0448437,,-3.872e-04,-2.03047
-3.856e-04,-2.09922,0.0714703,-1.78484,0.0454687,,-3.856e-04,-2.02969
-3.840e-04,-2.09922,0.0713844,-1.78219,0.0465624,,-3.840e-04,-2.02969
-3.824e-04,-2.09141,0.0712,-1.78992,0.0448437,,-3.824e-04,-2.02188
-3.808e-04,-2.06719,0.0709297,-1.78313,0.0453124,,-3.808e-04,-1.99844
-3.792e-04,-2.03672,0.0708953,-1.7818,0.0460937,,-3.792e-04,-1.96797
-3.776e-04,-1.94062,0.0706391,-1.78031,0.0449999,,-3.776e-04,-1.87188
-3.760e-04,-1.89922,0.0705531,-1.77008,0.0421874,,-3.760e-04,-1.83047
-3.744e-04,-1.89922,0.0702484,-1.77,0.0462499,,-3.744e-04,-1.83125
-3.728e-04,-1.89531,0.0701812,-1.77,0.0457812,,-3.728e-04,-1.82734
-3.712e-04,-1.86719,0.0700016,-1.77,0.0476562,,-3.712e-04,-1.79922
-3.696e-04,-1.81406,0.0698656,-1.77,0.0449999,,-3.696e-04,-1.74609
-3.680e-04,-1.71172,0.0696609,-1.76805,0.0470312,,-3.680e-04,-1.64375
-3.664e-04,-1.69609,0.0695172,-1.76516,0.0484374,,-3.664e-04,-1.62891
-3.648e-04,-1.65547,0.0696125,-1.76375,0.0446874,,-3.648e-04,-1.5875
-3.632e-04,-1.61094,0.0693547,-1.76266,0.0470312,,-3.632e-04,-1.54375
-3.616e-04,-1.55859,0.0690781,-1.76148,0.0446874,,-3.616e-04,-1.49141
-3.600e-04,-1.49609,0.0688719,-1.75719,0.0453124,,-3.600e-04,-1.42891
-3.584e-04,-1.41953,0.0686797,-1.75297,0.0598437,,-3.584e-04,-1.35313
-3.568e-04,-1.37422,0.0687281,-1.75023,0.0445312,,-3.568e-04,-1.30781
-3.552e-04,-1.29922,0.0683672,-1.75,0.0459374,,-3.552e-04,-1.23281
-3.536e-04,-1.25859,0.0683062,-1.75,0.0234374,,-3.536e-04,-1.19219
-3.520e-04,-1.16562,0.0682781,-1.74992,0.0467187,,-3.520e-04,-1.09922
-3.504e-04,-1.09844,0.068125,-1.74531,0.0443749,,-3.504e-04,-1.03203
-3.488e-04,-1.00625,0.0677953,-1.74461,0.0456249,,-3.488e-04,-0.940625
-3.472e-04,-0.930468,0.0677703,-1.74352,0.0456249,,-3.472e-04,-0.864844
-3.456e-04,-0.857812,0.0675625,-1.73313,0.0449999,,-3.456e-04,-0.792188
-3.440e-04,-0.722656,0.0673609,-1.74109,0.0456249,,-3.440e-04,-0.657031
-3.424e-04,-0.633593,0.0673594,-1.73867,0.0243749,,-3.424e-04,-0.567969
-3.408e-04,-0.500781,0.06735,-1.73,0.0468749,,-3.408e-04,-0.435156
-3.392e-04,-0.378125,0.0668734,-1.73,0.0460937,,-3.392e-04,-0.313281
-3.376e-04,-0.252343,0.0669906,-1.73008,0.0453124,,-3.376e-04,-0.1875
-3.360e-04,-0.103906,0.0669672,-1.73,0.0440624,,-3.360e-04,-0.0390625
-3.344e-04,0.0539067,0.0670031,-1.72914,0.0443749,,-3.344e-04,0.11875
-3.328e-04,0.242969,0.0668859,-1.72469,0.0453124,,-3.328e-04,0.307813
-3.312e-04,0.457032,0.0669328,-1.73,0.0453124,,-3.312e-04,0.521875
-3.296e-04,0.640625,0.066575,-1.72352,0.0457812,,-3.296e-04,0.705469
-3.280e-04,0.922657,0.0662891,-1.72305,0.0465624,,-3.280e-04,0.986719
-3.264e-04,1.16328,0.0665391,-1.72297,0.0599999,,-3.264e-04,1.22813
-3.248e-04,1.46016,0.0665156,-1.72055,0.0592187,,-3.248e-04,1.525
-3.232e-04,1.79922,0.0662187,-1.71766,0.0435937,,-3.232e-04,1.86328
-3.216e-04,2.20078,0.0660484,-1.71016,0.0599999,,-3.216e-04,2.26484
-3.200e-04,2.62656,0.0657797,-1.71,0.0434374,,-3.200e-04,2.69063
-3.184e-04,3.12031,0.0655937,-1.71,0.0443749,,-3.184e-04,3.18359
-3.168e-04,3.71563,0.0653203,-1.70992,0.0448437,,-3.168e-04,3.77891
-3.152e-04,4.39609,0.0650703,-1.71,0.0457812,,-3.152e-04,4.45938
-3.136e-04,5.21484,0.0650391,-1.70508,0.0454687,,-3.136e-04,5.27813
-3.120e-04,6.21484,0.0645937,-1.70406,0.0442187,,-3.120e-04,6.27734
-3.104e-04,7.41641,0.0641266,-1.70289,0.0459374,,-3.104e-04,7.47891
-3.088e-04,8.84922,0.0638344,-1.70258,0.0448437,,-3.088e-04,8.91094
-3.072e-04,10.5391,0.0634141,-1.70273,0.0467187,,-3.072e-04,10.6008
-3.056e-04,12.6,0.0631906,-1.69141,0.0456249,,-3.056e-04,12.6609
-3.040e-04,15.1484,0.0627781,-1.6975,0.0449999,,-3.040e-04,15.2094
-3.024e-04,18.3586,0.0626016,-1.69422,0.0424999,,-3.024e-04,18.4195
-3.008e-04,22.5352,0.0624109,-1.69,0.0437499,,-3.008e-04,22.5961
-2.992e-04,27.9266,0.0621672,-1.69,0.0456249,,-2.992e-04,25.5992
-2.976e-04,33.8984,0.0620469,-1.68992,0.0467187,,-2.976e-04,25.5992
-2.960e-04,38.2773,0.0617125,-1.68969,0.0435937,,-2.960e-04,25.5992
-2.944e-04,41.5914,0.0616266,-1.68469,0.0251562,,-2.944e-04,25.5992
-2.928e-04,43.9914,0.06105,-1.6843,0.0249999,,-2.928e-04,25.5992
-2.912e-04,45.8297,0.0610422,-1.68258,0.0232812,,-2.912e-04,25.5992
-2.896e-04,47.3008,0.0606797,-1.68258,0.0440624,,-2.896e-04,25.5992
-2.880e-04,47.3703,0.0603734,-1.68117,0.0442187,,-2.880e-04,25.5992
-2.864e-04,47.4,0.0602016,-1.67852,0.0476562,,-2.864e-04,25.5992
-2.848e-04,47.4,0.0600391,-1.67281,0.0454687,,-2.848e-04,25.5992
-2.832e-04,47.4,0.0600078,-1.67,0.0451562,,-2.832e-04,25.5992
-2.816e-04,47.4,0.0596781,-1.67,0.0439062,,-2.816e-04,25.5992
-2.800e-04,47.4,0.0596047,-1.66992,0.0229687,,-2.800e-04,25.5992
-2.784e-04,47.4,0.0593234,-1.66781,0.0468749,,-2.784e-04,25.5992
-2.768e-04,47.4,0.0590922,-1.66453,0.0445312,,-2.768e-04,25.5992
-2.752e-04,47.4,0.0589937,-1.6632,0.0471874,,-2.752e-04,25.5992
-2.736e-04,47.4,0.05875,-1.66219,0.0482812,,-2.736e-04,25.5992
-2.720e-04,47.4,0.0585687,-1.66273,0.0445312,,-2.720e-04,25.5992
-2.704e-04,47.4,0.0582156,-1.66234,0.0446874,,-2.704e-04,25.5992
-2.688e-04,47.4,0.0580578,-1.66242,0.0439062,,-2.688e-04,25.5992
-2.672e-04,47.4,0.0578641,-1.66086,0.0449999,,-2.672e-04,25.5992
-2.656e-04,47.4,0.0577078,-1.65625,0.0448437,,-2.656e-04,25.5992
-2.640e-04,47.4,0.0572719,-1.65172,0.0470312,,-2.640e-04,25.5992
-2.624e-04,47.4,0.0572312,-1.65,0.0431249,,-2.624e-04,25.5992
-2.608e-04,47.4,0.0571437,-1.65,0.0442187,,-2.608e-04,25.5992
-2.592e-04,47.4,0.0568531,-1.65,0.0456249,,-2.592e-04,25.5992
-2.576e-04,47.4,0.0565859,-1.64609,0.0456249,,-2.576e-04,25.5992
-2.560e-04,47.4,0.0565219,-1.64563,0.0451562,,-2.560e-04,25.5992
-2.544e-04,47.3945,0.0563344,-1.64992,0.0460937,,-2.544e-04,25.5992
-2.528e-04,47.1203,0.0561719,-1.6425,0.0464062,,-2.528e-04,25.5992
-2.512e-04,45.8563,0.0558078,-1.6407,0.0462499,,-2.512e-04,25.5992
-2.496e-04,43.5164,0.0557156,-1.63953,0.0459374,,-2.496e-04,25.5992
-2.480e-04,40.518,0.0557016,-1.63477,0.0448437,,-2.480e-04,25.5992
-2.464e-04,37.1742,0.0555984,-1.63,0.0443749,,-2.464e-04,25.5992
-2.448e-04,33.8875,0.0550859,-1.62992,0.0453124,,-2.448e-04,25.5992
-2.432e-04,30.2453,0.0553047,-1.62992,0.0451562,,-2.432e-04,25.5992
-2.416e-04,26.7945,0.0549906,-1.62977,0.0465624,,-2.416e-04,25.5992
-2.400e-04,23.8773,0.0549,-1.62508,0.0462499,,-2.400e-04,23.9305
-2.384e-04,21.3195,0.0545781,-1.62313,0.0445312,,-2.384e-04,21.3727
-2.368e-04,19.1281,0.0544484,-1.62297,0.0465624,,-2.368e-04,19.1813
-2.352e-04,17.2359,0.0541734,-1.62211,0.0467187,,-2.352e-04,17.2883
-2.336e-04,15.5617,0.0543203,-1.6232,0.0470312,,-2.336e-04,15.6141
-2.320e-04,14.1281,0.0539719,-1.62344,0.0434374,,-2.320e-04,14.1805
-2.304e-04,12.8414,0.0540922,-1.62117,0.0451562,,-2.304e-04,12.8938
-2.288e-04,11.6664,0.0539797,-1.61852,0.0465624,,-2.288e-04,11.7188
-2.272e-04,10.6336,0.0536172,-1.61453,0.0445312,,-2.272e-04,10.6859
-2.256e-04,9.69766,0.0535891,-1.61039,0.0598437,,-2.256e-04,9.74922
-2.240e-04,8.85391,0.0534859,-1.61,0.0243749,,-2.240e-04,8.90547
-2.224e-04,8.08516,0.0532672,-1.60992,0.0476562,,-2.224e-04,8.13672
-2.208e-04,7.39453,0.0532125,-1.60992,0.0435937,,-2.208e-04,7.44609
-2.192e-04,6.75938,0.0528234,-1.60602,0.0460937,,-2.192e-04,6.81094
-2.176e-04,6.16563,0.0528391,-1.60992,0.0240624,,-2.176e-04,6.21719
-2.160e-04,5.64609,0.0528062,-1.60289,0.0479687,,-2.160e-04,5.69766
-2.144e-04,5.12656,0.0525703,-1.60305,0.0459374,,-2.144e-04,5.17734
-2.128e-04,4.65781,0.0524687,-1.60203,0.0460937,,-2.128e-04,4.70859
-2.112e-04,4.25156,0.0525172,-1.60148,0.0460937,,-2.112e-04,4.30234
-2.096e-04,3.81875,0.0521672,-1.60141,0.0460937,,-2.096e-04,3.86953
-2.080e-04,3.44766,0.0522297,-1.59891,0.0445312,,-2.080e-04,3.49844
-2.064e-04,3.0625,0.0520219,-1.59617,0.0445312,,-2.064e-04,3.11328
-2.048e-04,2.71719,0.0519,-1.59156,0.0249999,,-2.048e-04,2.76719
-2.032e-04,2.44531,0.0517891,-1.58992,0.0476562,,-2.032e-04,2.49531
-2.016e-04,2.15313,0.0514359,-1.59,0.0456249,,-2.016e-04,2.20312
-2.000e-04,1.89219,0.0517172,-1.58992,0.0454687,,-2.000e-04,1.94219
-1.984e-04,1.64219,0.0514953,-1.59,0.0448437,,-1.984e-04,1.69219
-1.968e-04,1.41172,0.0513984,-1.58578,0.0440624,,-1.968e-04,1.46172
-1.952e-04,1.18828,0.0512734,-1.58289,0.0470312,,-1.952e-04,1.23828
-1.936e-04,0.960157,0.0512969,-1.58227,0.0478124,,-1.936e-04,1.01016
