06_Rb_spectroscopy/data2/TEK00001.CSV

Model,TBS2074B
Firmware Version,v1.31.16

Point Format,Y,,,
Horizontal Units,S,,,
Horizontal Scale,0.0002,,,
Sample Interval,1.6e-06,,,
Filter Frequency,2e+08,,,
Record Length,2000,,,
Gating,0.0% to 100.0%,0.0% to 100.0%,0.0% to 100.0%,0.0% to 100.0%
Probe Attenuation,10,10,1,1
Vertical Units,V,V,V,V
Vertical Offset,0,0,0,0
Vertical Scale,5,0.02,0.5,1
Label,,,,
TIME,CH1,CH2,CH3,CH4
-6.560e-04,-0.271093,0.104453,-2.08344,0.0601562
-6.544e-04,-0.275781,0.104425,-2.07844,0.0564062
-6.528e-04,-0.283593,0.104409,-2.07188,0.0601562
-6.512e-04,-0.272656,0.104347,-2.07,0.0585937
-6.496e-04,-0.267187,0.103984,-2.06992,0.0598437
-6.480e-04,-0.261718,0.103769,-2.06992,0.0599999
-6.464e-04,-0.25625,0.103722,-2.06992,0.0599999
-6.448e-04,-0.299218,0.103697,-2.06992,0.0593749
-6.432e-04,-0.264843,0.103628,-2.06992,0.0599999
-6.416e-04,-0.275781,0.1036,-2.06875,0.0589062
-6.400e-04,-0.26875,0.103387,-2.06672,0.0574999
-6.384e-04,-0.261718,0.103122,-2.0668,0.0589062
-6.368e-04,-0.263281,0.102928,-2.06539,0.0599999
-6.352e-04,-0.267968,0.102872,-2.06344,0.0562499
-6.336e-04,-0.261718,0.102859,-2.05898,0.0568749
-6.320e-04,-0.264062,0.102806,-2.05336,0.0598437
-6.304e-04,-0.257031,0.102803,-2.04992,0.0598437
-6.288e-04,-0.299218,0.102494,-2.04992,0.0599999
-6.272e-04,-0.260156,0.102094,-2.04992,0.0578124
-6.256e-04,-0.264062,0.102097,-2.04992,0.0599999
-6.240e-04,-0.267968,0.102009,-2.04992,0.0596874
-6.224e-04,-0.264062,0.102006,-2.04992,0.0365624
-6.208e-04,-0.253906,0.101994,-2.04992,0.0599999
-6.192e-04,-0.257031,0.101687,-2.04992,0.0599999
-6.176e-04,-0.267968,0.101372,-2.04594,0.0599999
-6.160e-04,-0.271875,0.101278,-2.04406,0.0582812
-6.144e-04,-0.260937,0.101237,-2.04109,0.0599999
-6.128e-04,-0.258593,0.101212,-2.03539,0.0557812
-6.112e-04,-0.264843,0.101125,-2.03,0.0596874
-6.096e-04,-0.26875,0.100697,-2.03,0.0576562
-6.080e-04,-0.255468,0.100581,-2.03,0.0565624
-6.064e-04,-0.257031,0.100453,-2.03,0.0568749
-6.048e-04,-0.260156,0.100412,-2.03,0.0599999
-6.032e-04,-0.258593,0.100416,-2.03,0.0567187
-6.016e-04,-0.257812,0.1004,-2.02992,0.0599999
-6.000e-04,-0.25625,0.0998062,-2.02992,0.0599999
-5.984e-04,-0.260156,0.0997719,-2.02695,0.0596874
-5.968e-04,-0.264062,0.0996312,-2.02367,0.0584374
-5.952e-04,-0.266406,0.0996219,-2.01891,0.0599999
-5.936e-04,-0.261718,0.0995969,-2.01484,0.0599999
-5.920e-04,-0.2625,0.0993594,-2.01,0.0582812
-5.904e-04,-0.267968,0.0990531,-2.00992,0.0592187
-5.888e-04,-0.253906,0.0989406,-2.00992,0.0579687
-5.872e-04,-0.251562,0.0988406,-2.00992,0.0381249
-5.856e-04,-0.266406,0.0988219,-2.00992,0.0578124
-5.840e-04,-0.2625,0.0988156,-2.00992,0.0599999
-5.824e-04,-0.264062,0.0984312,-2.00992,0.0599999
-5.808e-04,-0.299218,0.0982594,-2.00945,0.0589062
-5.792e-04,-0.2625,0.0980156,-2.00758,0.0601562
-5.776e-04,-0.253125,0.0980094,-2.0057,0.0587499
-5.760e-04,-0.2625,0.0980281,-2.00289,0.0573437
-5.744e-04,-0.260156,0.0977562,-1.99773,0.0599999
-5.728e-04,-0.278125,0.0974656,-1.99227,0.0599999
-5.712e-04,-0.257031,0.0973375,-1.98992,0.0584374
-5.696e-04,-0.257812,0.0973594,-1.99,0.0589062
-5.680e-04,-0.255468,0.0972562,-1.99,0.0599999
-5.664e-04,-0.2625,0.0972094,-1.98992,0.0599999
-5.648e-04,-0.246093,0.0971156,-1.98992,0.0567187
-5.632e-04,-0.275781,0.0967375,-1.98992,0.0599999
-5.616e-04,-0.252343,0.0965719,-1.98992,0.0599999
-5.600e-04,-0.259375,0.0964562,-1.98563,0.0598437
-5.584e-04,-0.253125,0.0964375,-1.98367,0.0599999
-5.568e-04,-0.252343,0.0964094,-1.97898,0.0599999
-5.552e-04,-0.276562,0.0963031,-1.9757,0.0599999
-5.536e-04,-0.253125,0.0957812,-1.97008,0.0599999
-5.520e-04,-0.2625,0.0957094,-1.97,0.0599999
-5.504e-04,-0.266406,0.0956875,-1.97,0.0599999
-5.488e-04,-0.253906,0.0956562,-1.97,0.0598437
-5.472e-04,-0.252343,0.0955906,-1.96992,0.0574999
-5.456e-04,-0.273437,0.0952125,-1.97,0.0595312
-5.440e-04,-0.267187,0.0950875,-1.96992,0.0598437
-5.424e-04,-0.257812,0.0948594,-1.96992,0.0593749
-5.408e-04,-0.263281,0.0948031,-1.96992,0.0599999
-5.392e-04,-0.263281,0.0948156,-1.96992,0.0599999
-5.376e-04,-0.251562,0.0947719,-1.95977,0.0599999
-5.360e-04,-0.263281,0.0943906,-1.95352,0.0601562
-5.344e-04,-0.299218,0.0941812,-1.94992,0.0599999
-5.328e-04,-0.242968,0.0941406,-1.95,0.0571874
-5.312e-04,-0.246875,0.0940312,-1.95,0.0585937
-5.296e-04,-0.253125,0.0940031,-1.94992,0.0584374
-5.280e-04,-0.253125,0.093875,-1.94992,0.0599999
-5.264e-04,-0.239843,0.0933844,-1.94992,0.0382812
-5.248e-04,-0.25,0.0933562,-1.94961,0.0599999
-5.232e-04,-0.245312,0.0932219,-1.94656,0.0599999
-5.216e-04,-0.261718,0.0932125,-1.9443,0.0595312
-5.200e-04,-0.297656,0.0932094,-1.94063,0.0557812
-5.184e-04,-0.251562,0.0930469,-1.93953,0.0601562
-5.168e-04,-0.249218,0.0926219,-1.93422,0.0599999
-5.152e-04,-0.253906,0.0925312,-1.93,0.0571874
-5.136e-04,-0.255468,0.0924656,-1.93,0.0601562
-5.120e-04,-0.253906,0.0924062,-1.92992,0.0599999
-5.104e-04,-0.246093,0.0924156,-1.92992,0.0599999
-5.088e-04,-0.250781,0.0919844,-1.92992,0.0592187
-5.072e-04,-0.299218,0.0918125,-1.92992,0.0567187
-5.056e-04,-0.258593,0.0916562,-1.92992,0.0599999
-5.040e-04,-0.257812,0.091625,-1.92664,0.0599999
-5.024e-04,-0.239062,0.0916,-1.92203,0.0599999
-5.008e-04,-0.251562,0.0911937,-1.92789,0.0601562
-4.992e-04,-0.254687,0.0910906,-1.9107,0.0599999
-4.976e-04,-0.246875,0.0909187,-1.91,0.0571874
-4.960e-04,-0.240625,0.0908187,-1.91,0.0599999
-4.944e-04,-0.236718,0.0908094,-1.91,0.0599999
-4.928e-04,-0.25625,0.0904531,-1.90992,0.0598437
-4.912e-04,-0.244531,0.0901656,-1.90992,0.0599999
-4.896e-04,-0.246093,0.0900437,-1.90992,0.0599999
-4.880e-04,-0.246093,0.0900406,-1.90992,0.0599999
-4.864e-04,-0.23125,0.0900031,-1.9057,0.0599999
-4.848e-04,-0.232031,0.0895469,-1.90219,0.0599999
-4.832e-04,-0.244531,0.0893812,-1.89758,0.0599999
-4.816e-04,-0.227343,0.0892062,-1.89266,0.0599999
-4.800e-04,-0.229687,0.0892156,-1.88992,0.0599999
-4.784e-04,-0.229687,0.0890031,-1.88992,0.0587499
-4.768e-04,-0.241406,0.0887,-1.88992,0.0599999
-4.752e-04,-0.246093,0.0886156,-1.88992,0.0564062
-4.736e-04,-0.242187,0.0884531,-1.88992,0.0598437
-4.720e-04,-0.229687,0.0884281,-1.88992,0.0567187
-4.704e-04,-0.24375,0.0882187,-1.88906,0.0554687
-4.688e-04,-0.225781,0.0878469,-1.88719,0.0599999
-4.672e-04,-0.249218,0.0877625,-1.88414,0.0599999
-4.656e-04,-0.242187,0.0876437,-1.87898,0.0599999
-4.640e-04,-0.245312,0.0876156,-1.87,0.0581249
-4.624e-04,-0.234375,0.0872344,-1.87,0.0599999
-4.608e-04,-0.229687,0.0870437,-1.87,0.0589062
-4.592e-04,-0.298437,0.0868625,-1.87,0.0596874
-4.576e-04,-0.223437,0.0868187,-1.87,0.0599999
-4.560e-04,-0.227343,0.0868125,-1.86992,0.0599999
-4.544e-04,-0.232812,0.0862906,-1.86992,0.0599999
-4.528e-04,-0.225,0.0860937,-1.86961,0.0599999
-4.512e-04,-0.239843,0.0860031,-1.86766,0.0599999
-4.496e-04,-0.229687,0.0860031,-1.86484,0.0593749
-4.480e-04,-0.296093,0.0856125,-1.85992,0.0599999
-4.464e-04,-0.228906,0.085375,-1.85008,0.0598437
-4.448e-04,-0.297656,0.0853219,-1.85,0.0599999
-4.432e-04,-0.225,0.0852125,-1.84992,0.0396874
-4.416e-04,-0.229687,0.0848031,-1.84992,0.0599999
-4.400e-04,-0.217187,0.0846781,-1.84992,0.0595312
-4.384e-04,-0.210156,0.0844844,-1.84992,0.0599999
-4.368e-04,-0.216406,0.0844437,-1.84992,0.0576562
-4.352e-04,-0.2125,0.0844094,-1.84945,0.0595312
-4.336e-04,-0.214062,0.0839281,-1.84805,0.0599999
-4.320e-04,-0.214062,0.0837844,-1.84469,0.0598437
-4.304e-04,-0.210937,0.0837062,-1.84156,0.0589062
-4.288e-04,-0.211718,0.0835969,-1.83,0.0599999
-4.272e-04,-0.209375,0.0831656,-1.82992,0.0599999
-4.256e-04,-0.204687,0.0830219,-1.83,0.0598437
-4.240e-04,-0.184375,0.082825,-1.82992,0.0599999
-4.224e-04,-0.295312,0.0828031,-1.83,0.0599999
-4.208e-04,-0.200781,0.0825281,-1.82992,0.0599999
-4.192e-04,-0.209375,0.0822656,-1.82992,0.0598437
-4.176e-04,-0.204687,0.0821031,-1.82797,0.0585937
-4.160e-04,-0.198437,0.082,-1.82727,0.0587499
-4.144e-04,-0.199218,0.0819469,-1.82648,0.0599999
-4.128e-04,-0.189062,0.0815219,-1.82492,0.0599999
-4.112e-04,-0.172656,0.0813531,-1.82063,0.0598437
-4.096e-04,-0.189843,0.0812719,-1.81289,0.0599999
-4.080e-04,-0.171875,0.0812031,-1.81,0.0598437
-4.064e-04,-0.175781,0.0807719,-1.81,0.0599999
-4.048e-04,-0.171093,0.0805125,-1.80992,0.0599999
-4.032e-04,-0.160937,0.0804531,-1.80992,0.0573437
-4.016e-04,-0.157812,0.0804125,-1.81,0.0599999
-4.000e-04,-0.161718,0.0800937,-1.80992,0.0596874
-3.984e-04,-0.150781,0.0798094,-1.80992,0.0599999
-3.968e-04,-0.15625,0.0797125,-1.80625,0.0599999
-3.952e-04,-0.146093,0.0796062,-1.79313,0.0599999
-3.936e-04,-0.153906,0.0794844,-1.79,0.0598437
-3.920e-04,-0.146093,0.0791031,-1.78992,0.0557812
-3.904e-04,-0.153906,0.0789281,-1.79,0.0599999
-3.888e-04,-0.136718,0.0788625,-1.79,0.0592187
-3.872e-04,-0.132031,0.0788062,-1.79,0.0421874
-3.856e-04,-0.127343,0.07855,-1.78992,0.0598437
-3.840e-04,-0.104687,0.0783531,-1.78984,0.0599999
-3.824e-04,-0.0999995,0.0780719,-1.78789,0.0596874
-3.808e-04,-0.107812,0.0780625,-1.78758,0.0595312
-3.792e-04,-0.0999995,0.0780312,-1.79,0.0598437
-3.776e-04,-0.0992183,0.0775812,-1.78531,0.0599999
-3.760e-04,-0.0999995,0.0773187,-1.77844,0.0598437
-3.744e-04,-0.100781,0.0772656,-1.77,0.0599999
-3.728e-04,-0.0999995,0.0772094,-1.77,0.0599999
-3.712e-04,-0.0999995,0.0772031,-1.77,0.0599999
-3.696e-04,-0.0999995,0.0766344,-1.77,0.0599999
-3.680e-04,-0.0999995,0.076525,-1.76992,0.0599999
-3.664e-04,-0.0999995,0.076475,-1.76992,0.0599999
-3.648e-04,-0.0999995,0.0764062,-1.76992,0.0598437
-3.632e-04,-0.0999995,0.0760437,-1.76758,0.0599999
-3.616e-04,-0.0999995,0.0757937,-1.76586,0.0598437
-3.600e-04,-0.0999995,0.0757125,-1.76359,0.0599999
-3.584e-04,-0.0999995,0.0756094,-1.75727,0.0599999
-3.568e-04,-0.0999995,0.0752781,-1.75,0.0599999
-3.552e-04,-0.0992183,0.0750531,-1.75,0.0596874
-3.536e-04,-0.0999995,0.0749969,-1.75,0.0599999
-3.520e-04,-0.0999995,0.0748125,-1.74992,0.0599999
-3.504e-04,-0.0992183,0.0748125,-1.74992,0.0595312
-3.488e-04,-0.0999995,0.0743531,-1.74992,0.0592187
-3.472e-04,-0.0999995,0.0742656,-1.74953,0.0399999
-3.456e-04,-0.100781,0.0741312,-1.74836,0.0599999
-3.440e-04,-0.0999995,0.0740031,-1.74797,0.0582812
-3.424e-04,-0.0999995,0.0738812,-1.74391,0.0601562
-3.408e-04,-0.0999995,0.0735125,-1.73719,0.0392187
-3.392e-04,-0.0992183,0.0733,-1.73,0.0598437
-3.376e-04,-0.0999995,0.0732219,-1.73,0.0567187
-3.360e-04,-0.0999995,0.0731969,-1.73,0.0601562
-3.344e-04,-0.0992183,0.0727,-1.72992,0.0593749
-3.328e-04,-0.0999995,0.0726,-1.72992,0.0599999
-3.312e-04,-0.0999995,0.0724937,-1.72992,0.0599999
-3.296e-04,-0.0999995,0.0724125,-1.72742,0.0406249
-3.280e-04,-0.0992183,0.0720031,-1.72719,0.0598437
-3.264e-04,-0.0999995,0.0719094,-1.72781,0.0598437
-3.248e-04,-0.0992183,0.0716656,-1.72672,0.0599999
-3.232e-04,-0.0992183,0.0715937,-1.72219,0.0564062
-3.216e-04,-0.0992183,0.0716,-1.71648,0.0584374
-3.200e-04,-0.0999995,0.0709625,-1.71,0.0599999
-3.184e-04,-0.0992183,0.0708594,-1.70992,0.0587499
-3.168e-04,-0.0992183,0.0708719,-1.71,0.0599999
-3.152e-04,-0.0992183,0.0707062,-1.70992,0.0599999
-3.136e-04,-0.0992183,0.070225,-1.70992,0.0601562
-3.120e-04,-0.0992183,0.0700312,-1.70992,0.0599999
-3.104e-04,-0.0992183,0.0700094,-1.70797,0.0592187
-3.088e-04,-0.0789058,0.0699906,-1.70633,0.0599999
-3.072e-04,-0.0718745,0.0694719,-1.70547,0.0601562
-3.056e-04,-0.0570308,0.0693312,-1.70523,0.0599999
-3.040e-04,-0.0273433,0.0692562,-1.70148,0.0592187
-3.024e-04,-0.00156202,0.0691969,-1.6918,0.0599999
-3.008e-04,0.039063,0.0686906,-1.69,0.0599999
-2.992e-04,0.0968755,0.0684281,-1.69,0.0599999
-2.976e-04,0.1,0.0684094,-1.69,0.0601562
-2.960e-04,0.1,0.0684125,-1.69,0.0601562
-2.944e-04,0.1,0.0679125,-1.69,0.0585937
-2.928e-04,0.100782,0.067725,-1.68992,0.0384374
-2.912e-04,0.100782,0.0676219,-1.68906,0.0601562
-2.896e-04,0.100782,0.0674687,-1.68703,0.0599999
-2.880e-04,0.100782,0.067075,-1.6868,0.0601562
-2.864e-04,0.176563,0.066925,-1.68219,0.0598437
-2.848e-04,0.203125,0.066825,-1.67242,0.0574999
-2.832e-04,0.3,0.0668031,-1.67,0.0601562
-2.816e-04,0.3,0.0662906,-1.67,0.0599999
-2.800e-04,0.300782,0.0660687,-1.66992,0.0581249
-2.784e-04,0.321875,0.0660312,-1.67,0.0598437
-2.768e-04,0.472657,0.0659937,-1.66992,0.0582812
-2.752e-04,0.5,0.0655,-1.66961,0.0599999
-2.736e-04,0.567969,0.0653562,-1.665,0.0599999
-2.720e-04,0.698438,0.0651969,-1.66547,0.0599999
-2.704e-04,0.789844,0.0651937,-1.66609,0.0596874
-2.688e-04,0.899219,0.0646281,-1.66641,0.0599999
-2.672e-04,1.09453,0.0645719,-1.66594,0.0599999
-2.656e-04,1.28828,0.0644031,-1.66055,0.0592187
-2.640e-04,1.50547,0.0642969,-1.65016,0.0587499
-2.624e-04,1.87031,0.0637937,-1.65,0.0601562
-2.608e-04,2.18516,0.0637094,-1.64992,0.0599999
-2.592e-04,2.64609,0.0636062,-1.65,0.0599999
-2.576e-04,3.23984,0.0630812,-1.65,0.0599999
-2.560e-04,4.10234,0.0629375,-1.64992,0.0599999
-2.544e-04,5.225,0.0628094,-1.64992,0.0582812
-2.528e-04,6.775,0.0628062,-1.64914,0.0599999
-2.512e-04,8.97266,0.0623906,-1.64695,0.0599999
-2.496e-04,11.8953,0.0621344,-1.64297,0.0381249
-2.480e-04,15.6203,0.0620781,-1.63563,0.0374999
-2.464e-04,19.8547,0.0620031,-1.63,0.0599999
-2.448e-04,24.0961,0.0617969,-1.63,0.0370312
-2.432e-04,27.6461,0.0613406,-1.62992,0.0381249
-2.416e-04,29.8781,0.0612156,-1.63,0.0592187
-2.400e-04,30.2609,0.0612031,-1.62992,0.0599999
-2.384e-04,28.7086,0.0608062,-1.62992,0.0585937
-2.368e-04,25.7211,0.0605656,-1.625,0.0579687
-2.352e-04,22.0984,0.0604687,-1.62578,0.0601562
-2.336e-04,18.4508,0.0604062,-1.62633,0.0589062
-2.320e-04,15.1039,0.0602375,-1.6268,0.0599999
-2.304e-04,12.2188,0.0597656,-1.62617,0.0599999
-2.288e-04,9.77891,0.0597094,-1.62141,0.0601562
-2.272e-04,7.86328,0.0596031,-1.61531,0.0599999
-2.256e-04,6.27266,0.0592156,-1.61,0.0581249
-2.240e-04,5.03047,0.0589281,-1.61,0.0601562
-2.224e-04,4.04375,0.0588594,-1.61,0.0598437
-2.208e-04,3.28359,0.0588125,-1.61,0.0599999
-2.192e-04,2.67188,0.0583719,-1.60992,0.0601562
-2.176e-04,2.14922,0.0581937,-1.61,0.0601562
-2.160e-04,1.79453,0.0580656,-1.6082,0.0599999
-2.144e-04,1.52031,0.0580031,-1.60992,0.0599999
-2.128e-04,1.2875,0.058,-1.60703,0.0599999
-2.112e-04,1.09844,0.0574687,-1.60734,0.0599999
-2.096e-04,0.904688,0.0572437,-1.60391,0.0599999
-2.080e-04,0.763282,0.0572031,-1.60055,0.0601562
-2.064e-04,0.700782,0.0572,-1.59711,0.0581249
-2.048e-04,0.553125,0.0566969,-1.59,0.0598437
-2.032e-04,0.500782,0.0565187,-1.59,0.0599999
-2.016e-04,0.4875,0.0564062,-1.59,0.0599999
-2.000e-04,0.376563,0.0564062,-1.59,0.0564062
-1.984e-04,0.3,0.0558406,-1.59,0.0599999
-1.968e-04,0.300782,0.0556781,-1.59,0.0598437
-1.952e-04,0.292969,0.0556125,-1.59,0.0584374
-1.936e-04,0.242188,0.0556094,-1.58891,0.0599999
-1.920e-04,0.129688,0.0550906,-1.58539,0.0599999
-1.904e-04,0.100782,0.0548469,-1.58273,0.0599999
-1.888e-04,0.1,0.0547969,-1.57914,0.0571874
-1.872e-04,0.1,0.0548031,-1.5743,0.0599999
-1.856e-04,0.1,0.0542437,-1.57,0.0599999
-1.840e-04,0.0992192,0.0540719,-1.57,0.0599999
-1.824e-04,0.079688,0.0540062,-1.57,0.0599999
-1.808e-04,0.00859423,0.0540125,-1.57,0.0599999
-1.792e-04,-0.0335933,0.0538094,-1.56992,0.0599999
-1.776e-04,-0.0726558,0.0533031,-1.56992,0.0599999
-1.760e-04,-0.0929683,0.0532062,-1.57,0.0582812
-1.744e-04,-0.0992183,0.0532,-1.56734,0.0599999
-1.728e-04,-0.0992183,0.05265,-1.56445,0.0599999
-1.712e-04,-0.0992183,0.0525469,-1.55867,0.0599999
-1.696e-04,-0.0992183,0.0524219,-1.55055,0.0599999
-1.680e-04,-0.0999995,0.0524,-1.54992,0.0601562
-1.664e-04,-0.0992183,0.0518469,-1.54992,0.0599999
-1.648e-04,-0.0999995,0.05165,-1.55,0.0599999
-1.632e-04,-0.0999995,0.0516031,-1.54992,0.0599999
-1.616e-04,-0.0999995,0.0513781,-1.54992,0.0598437
-1.600e-04,-0.0999995,0.0509812,-1.54992,0.0599999
-1.584e-04,-0.0999995,0.0508344,-1.54906,0.0599999
-1.568e-04,-0.0999995,0.0508125,-1.54648,0.0599999
-1.552e-04,-0.0999995,0.05065,-1.54992,0.0599999
-1.536e-04,-0.0999995,0.0501719,-1.54391,0.0601562
-1.520e-04,-0.0999995,0.0500719,-1.53859,0.0599999
-1.504e-04,-0.0999995,0.0500062,-1.53461,0.0399999
-1.488e-04,-0.0992183,0.0499812,-1.53008,0.0599999
-1.472e-04,-0.0999995,0.0493187,-1.53,0.0596874
-1.456e-04,-0.0999995,0.049225,-1.53,0.0601562
-1.440e-04,-0.110937,0.0491906,-1.53,0.0599999
-1.424e-04,-0.107031,0.04885,-1.53,0.0599999
-1.408e-04,-0.133593,0.0484031,-1.52992,0.0599999
-1.392e-04,-0.141406,0.0484,-1.53,0.0601562
-1.376e-04,-0.160937,0.0483531,-1.52953,0.0598437
-1.360e-04,-0.172656,0.0479531,-1.52547,0.0599999
-1.344e-04,-0.177343,0.0476344,-1.52391,0.0595312
-1.328e-04,-0.178906,0.0476062,-1.52102,0.0599999
-1.312e-04,-0.178906,0.047475,-1.51578,0.0599999
-1.296e-04,-0.190625,0.0470687,-1.51,0.0599999
-1.280e-04,-0.203906,0.0468406,-1.51,0.0599999
-1.264e-04,-0.194531,0.0468062,-1.51,0.0599999
-1.248e-04,-0.219531,0.0465812,-1.51,0.0599999
-1.232e-04,-0.228906,0.0461719,-1.50992,0.0599999
-1.216e-04,-0.223437,0.0460094,-1.50992,0.0601562
-1.200e-04,-0.222656,0.0460094,-1.50992,0.0601562
-1.184e-04,-0.232812,0.0459,-1.50602,0.0595312
-1.168e-04,-0.242187,0.0453969,-1.50398,0.0599999
-1.152e-04,-0.225781,0.0451844,-1.50047,0.0599999
-1.136e-04,-0.245312,0.0451812,-1.49859,0.0599999
-1.120e-04,-0.245312,0.0449656,-1.4932,0.0599999
-1.104e-04,-0.232812,0.0445344,-1.49,0.0599999
-1.088e-04,-0.253125,0.0444312,-1.49,0.0598437
-1.072e-04,-0.25,0.0444031,-1.49,0.0596874
-1.056e-04,-0.257812,0.0443156,-1.49,0.0601562
-1.040e-04,-0.251562,0.0438781,-1.49,0.0599999
-1.024e-04,-0.266406,0.0436469,-1.49,0.0599999
-1.008e-04,-0.259375,0.0435937,-1.49,0.0601562
-9.920e-05,-0.259375,0.0436062,-1.48625,0.0599999
-9.760e-05,-0.263281,0.0431469,-1.48383,0.0599999
-9.600e-05,-0.25625,0.042825,-1.47977,0.0599999
-9.440e-05,-0.260937,0.0428156,-1.47633,0.0599999
-9.280e-05,-0.25625,0.042725,-1.47055,0.0598437
-9.120e-05,-0.254687,0.0422219,-1.47,0.0595312
-8.960e-05,-0.263281,0.0420094,-1.47,0.0593749
-8.800e-05,-0.264843,0.0420031,-1.46992,0.0599999
-8.640e-05,-0.264843,0.0419156,-1.46992,0.0599999
-8.480e-05,-0.25,0.0412813,-1.47,0.0587499
-8.320e-05,-0.257031,0.0412094,-1.47,0.0590624
-8.160e-05,-0.267187,0.0412,-1.46664,0.0599999
-8.000e-05,-0.271875,0.0408875,-1.46375,0.0599999
-7.840e-05,-0.269531,0.0405469,-1.46164,0.0599999
-7.680e-05,-0.299218,0.0404031,-1.45859,0.0598437
-7.520e-05,-0.260937,0.0403938,-1.45633,0.0599999
-7.360e-05,-0.279687,0.0400563,-1.45,0.0599999
-7.200e-05,-0.261718,0.0397094,-1.45,0.0599999
-7.040e-05,-0.272656,0.0396313,-1.45,0.0599999
-6.880e-05,-0.252343,0.0396188,-1.45,0.0599999
-6.720e-05,-0.267968,0.0393625,-1.44992,0.0599999
-6.560e-05,-0.269531,0.0388156,-1.44992,0.0601562
-6.400e-05,-0.259375,0.0388063,-1.44992,0.0599999
-6.240e-05,-0.276562,0.0387781,-1.44633,0.0584374
-6.080e-05,-0.260937,0.0383438,-1.44273,0.0599999
-5.920e-05,-0.253906,0.0380031,-1.44102,0.0599999
-5.760e-05,-0.264843,0.038,-1.43906,0.0596874
-5.600e-05,-0.266406,0.0379906,-1.43625,0.0599999
-5.440e-05,-0.265625,0.0374906,-1.42992,0.0599999
-5.280e-05,-0.282031,0.0372688,-1.43,0.0599999
-5.120e-05,-0.299218,0.0371906,-1.43,0.0598437
-4.960e-05,-0.278125,0.037075,-1.43,0.0599999
-4.800e-05,-0.278125,0.0366938,-1.43,0.0601562
-4.640e-05,-0.285937,0.0364219,-1.42992,0.0599999
-4.480e-05,-0.275,0.0364063,-1.42992,0.0599999
-4.320e-05,-0.271093,0.0362688,-1.4275,0.0599999
-4.160e-05,-0.271875,0.0359531,-1.42422,0.0599999
-4.000e-05,-0.275,0.0356906,-1.42078,0.0599999
-3.840e-05,-0.283593,0.0356063,-1.41602,0.0599999
-3.680e-05,-0.267187,0.0355844,-1.41031,0.0599999
-3.520e-05,-0.271875,0.0349906,-1.41,0.0601562
-3.360e-05,-0.273437,0.0348469,-1.40992,0.0393749
-3.200e-05,-0.264062,0.034825,-1.40992,0.0599999
-3.040e-05,-0.266406,0.0347719,-1.41,0.0601562
-2.880e-05,-0.285156,0.0341469,-1.40992,0.0601562
-2.720e-05,-0.276562,0.0340969,-1.40992,0.0599999
-2.560e-05,-0.280468,0.0340125,-1.40711,0.0593749
-2.400e-05,-0.272656,0.0340094,-1.40508,0.0599999
-2.240e-05,-0.267968,0.0333438,-1.40055,0.0601562
-2.080e-05,-0.26875,0.0332219,-1.39594,0.0599999
-1.920e-05,-0.273437,0.0332094,-1.39,0.0599999
-1.760e-05,-0.277343,0.0331344,-1.39,0.0599999
-1.600e-05,-0.261718,0.0324938,-1.39,0.0598437
-1.440e-05,-0.257031,0.0324344,-1.39,0.0599999
-1.280e-05,-0.28125,0.0323938,-1.39,0.0599999
-1.120e-05,-0.276562,0.0323938,-1.38992,0.0599999
