05_cherenkov/data/tek0017.csv

Model,MSO4104B
Firmware Version,3.20

Waveform Type,ANALOG,
Point Format,Y,
Horizontal Units,s,
Horizontal Scale,1e-08,
Horizontal Delay,-1.2e-09,
Sample Interval,2e-10,
Record Length,100000,
Gating,0.0% to 100.0%,
Probe Attenuation,1,1
Vertical Units,V,V
Vertical Offset,0,0
Vertical Scale,0.01,0.01
Vertical Position,-0.04,-3.04
,,
,,
,,
Label,,
TIME,CH1,CH2
-1.000120e-05,0.0004,0.0012
-1.000100e-05,0,0.0008
-1.000080e-05,0.0008,-0.0008
-1.000060e-05,0.002,0
-1.000040e-05,0.0016,0.0008
-1.000020e-05,0.0004,0.0012
-1.000000e-05,0,0.0012
-9.999800e-06,0,-0.0004
-9.999600e-06,0.0012,-0.0012
-9.999400e-06,0.0016,-0.0016
-9.999200e-06,0.0008,-0.0004
-9.999000e-06,0.0012,0.0008
-9.998800e-06,-0.0004,0.0016
-9.998600e-06,-0.0008,-0.0004
-9.998400e-06,0.0008,-0.0012
-9.998200e-06,0.0008,-0.0008
-9.998000e-06,0.0028,0
-9.997800e-06,0.0012,0.0012
-9.997600e-06,-0.0004,0.0004
-9.997400e-06,-0.0004,0.0004
-9.997200e-06,0,-0.0004
-9.997000e-06,0.0008,-0.0016
-9.996800e-06,0.0012,-0.0008
-9.996600e-06,0.0012,-0.0004
-9.996400e-06,0,0.0008
-9.996200e-06,0,0.0012
-9.996000e-06,-0.0004,0.0008
-9.995800e-06,0,-0.0012
-9.995600e-06,0.0012,-0.0012
-9.995400e-06,0.0012,-0.0012
-9.995200e-06,0.0016,0.0004
-9.995000e-06,-0.0004,0.0012
-9.994800e-06,-0.002,0.0008
-9.994600e-06,-0.0012,-0.0012
-9.994400e-06,0.0004,-0.0012
-9.994200e-06,0.0024,-0.0012
-9.994000e-06,0.0024,0
-9.993800e-06,0,0.0008
-9.993600e-06,-0.0012,0.0012
-9.993400e-06,-0.0008,-0.0004
-9.993200e-06,0.0012,-0.0012
-9.993000e-06,0.0036,-0.0012
-9.992800e-06,0.0028,0.0008
-9.992600e-06,0.0004,0.0016
-9.992400e-06,0,0.0008
-9.992200e-06,-0.0016,-0.0004
-9.992000e-06,0.0008,-0.0004
-9.991800e-06,0.0032,-0.0004
-9.991600e-06,0.0024,0.0004
-9.991400e-06,0.0012,0.0008
-9.991200e-06,-0.0008,0.0016
-9.991000e-06,-0.0012,0.0008
-9.990800e-06,0.0004,0.0008
-9.990600e-06,0.0024,0.0008
-9.990400e-06,0.002,0.0004
-9.990200e-06,0.0012,0.0004
-9.990000e-06,0.0008,0.0024
-9.989800e-06,0,0.0016
-9.989600e-06,0.0004,0.0008
-9.989400e-06,0.0004,-0.0004
-9.989200e-06,0.0028,-0.002
-9.989000e-06,0.002,-0.0004
-9.988800e-06,0.0008,0.0012
-9.988600e-06,0,0.002
-9.988400e-06,-0.0012,0.002
-9.988200e-06,0,-0.0004
-9.988000e-06,0.0024,-0.0008
-9.987800e-06,0.0032,-0.0004
-9.987600e-06,0.0028,0.0016
-9.987400e-06,0.0008,0.002
-9.987200e-06,-0.0024,0.0008
-9.987000e-06,-0.0012,-0.0012
-9.986800e-06,0.0024,-0.0008
-9.986600e-06,0.0032,0
-9.986400e-06,0.0032,0.0016
-9.986200e-06,-0.0004,0.0016
-9.986000e-06,-0.0028,0.0012
-9.985800e-06,-0.0008,0
-9.985600e-06,0.002,0
-9.985400e-06,0.0036,-0.0004
-9.985200e-06,0.0028,0
-9.985000e-06,0.0004,0
-9.984800e-06,-0.002,0.0012
-9.984600e-06,-0.0012,0.0004
-9.984400e-06,0.0008,0.0004
-9.984200e-06,0.0016,-0.0004
-9.984000e-06,0.002,-0.0004
-9.983800e-06,0.0008,-0.0004
-9.983600e-06,-0.0008,0.0004
-9.983400e-06,-0.0008,0.0012
-9.983200e-06,0.0004,0.0004
-9.983000e-06,0.0016,-0.0004
-9.982800e-06,0.0024,-0.0004
-9.982600e-06,0.0024,0.0008
-9.982400e-06,0.0008,0.0024
-9.982200e-06,0.0004,0.0012
-9.982000e-06,-0.0008,0.0012
-9.981800e-06,0.0004,-0.0012
-9.981600e-06,0.002,-0.0012
-9.981400e-06,0.004,0
-9.981200e-06,0.0028,0.0024
-9.981000e-06,0.0004,0.0024
-9.980800e-06,-0.0016,0
-9.980600e-06,-0.0012,-0.0004
-9.980400e-06,0.0016,0.0004
-9.980200e-06,0.004,0.0008
-9.980000e-06,0.0028,0.0016
-9.979800e-06,0,0.0016
-9.979600e-06,-0.0024,0
-9.979400e-06,-0.0008,-0.0008
-9.979200e-06,0.0016,0
-9.979000e-06,0.0036,-0.0004
-9.978800e-06,0.0024,0.0016
-9.978600e-06,-0.0008,0.0004
-9.978400e-06,-0.002,0
-9.978200e-06,-0.0008,0
-9.978000e-06,0.0008,0
-9.977800e-06,0.0024,0
-9.977600e-06,0.002,0.0004
-9.977400e-06,0.0004,0.0004
-9.977200e-06,0.0004,0.002
-9.977000e-06,0,0.0012
-9.976800e-06,-0.0004,-0.0004
-9.976600e-06,0.0004,-0.0016
-9.976400e-06,0.0012,0
-9.976200e-06,0.0008,0.0008
-9.976000e-06,0.0008,0.0028
-9.975800e-06,-0.0008,0.0016
-9.975600e-06,-0.0016,-0.0008
-9.975400e-06,-0.0008,-0.0016
-9.975200e-06,0.0008,-0.0008
-9.975000e-06,0.0032,0.0016
-9.974800e-06,0.002,0.0024
-9.974600e-06,0,0.0008
-9.974400e-06,-0.0016,-0.0004
-9.974200e-06,-0.002,-0.0008
-9.974000e-06,0.0012,-0.0008
-9.973800e-06,0.0032,0.0012
-9.973600e-06,0.002,0.0024
-9.973400e-06,0,0.0004
-9.973200e-06,-0.002,0.0004
-9.973000e-06,-0.0012,-0.0012
-9.972800e-06,0.0016,0.0004
-9.972600e-06,0.0032,0.0012
-9.972400e-06,0.0024,0.0012
-9.972200e-06,0,0.0008
-9.972000e-06,-0.0012,0.0004
-9.971800e-06,-0.0004,0.0004
-9.971600e-06,0.0012,0.0004
-9.971400e-06,0.0016,0
-9.971200e-06,0.0016,0
-9.971000e-06,0.0008,0.0008
-9.970800e-06,0.0004,0.0008
-9.970600e-06,0,0.0008
-9.970400e-06,-0.0012,0
-9.970200e-06,-0.0004,-0.002
-9.970000e-06,0.0012,0
-9.969800e-06,0.002,0.0012
-9.969600e-06,0.0012,0.0024
-9.969400e-06,0,0.0004
-9.969200e-06,-0.002,-0.0012
-9.969000e-06,0,-0.0016
-9.968800e-06,0.0008,0
-9.968600e-06,0.0024,0.0024
-9.968400e-06,0.0024,0.002
-9.968200e-06,-0.0008,0.0004
-9.968000e-06,-0.0032,-0.0008
-9.967800e-06,-0.002,-0.0016
-9.967600e-06,0.0008,0.0008
-9.967400e-06,0.0036,0.0024
-9.967200e-06,0.0024,0.002
-9.967000e-06,0.0008,0.0004
-9.966800e-06,-0.002,-0.0016
-9.966600e-06,-0.0016,-0.0012
-9.966400e-06,0.0004,0.0012
-9.966200e-06,0.002,0.0016
-9.966000e-06,0.0016,0.0008
-9.965800e-06,0,0
-9.965600e-06,-0.0016,-0.0012
-9.965400e-06,-0.002,0
-9.965200e-06,0.0008,0
-9.965000e-06,0.0012,0.0004
-9.964800e-06,0.0008,0.0008
-9.964600e-06,0.0012,0.0012
-9.964400e-06,0,0.0024
-9.964200e-06,-0.0004,0
-9.964000e-06,-0.0012,0
-9.963800e-06,-0.0004,-0.0012
-9.963600e-06,0.0008,0
-9.963400e-06,0.002,0.002
-9.963200e-06,0.0012,0.002
-9.963000e-06,0,-0.0004
-9.962800e-06,-0.0012,-0.0012
-9.962600e-06,-0.0012,-0.0016
-9.962400e-06,0.0016,0.0008
-9.962200e-06,0.0024,0.0024
-9.962000e-06,0.002,0.0016
-9.961800e-06,0.0004,-0.0004
-9.961600e-06,-0.002,-0.0012
-9.961400e-06,-0.0012,-0.0012
-9.961200e-06,-0.0004,0.0016
-9.961000e-06,0.0024,0.0028
-9.960800e-06,0.0028,0.0024
-9.960600e-06,0.0004,-0.0008
-9.960400e-06,-0.002,-0.002
-9.960200e-06,-0.002,0
-9.960000e-06,0.0004,0.0012
-9.959800e-06,0.0008,0.002
-9.959600e-06,0.002,0.0012
-9.959400e-06,0.0008,0
-9.959200e-06,-0.0004,0
-9.959000e-06,-0.0004,-0.0004
-9.958800e-06,-0.0008,0.0004
-9.958600e-06,0.0012,0
-9.958400e-06,0.0012,0.0004
-9.958200e-06,0.0004,0.0004
-9.958000e-06,-0.0008,0.0016
-9.957800e-06,-0.0024,0
-9.957600e-06,-0.0016,-0.0004
-9.957400e-06,0,0
-9.957200e-06,0.0012,0.0016
-9.957000e-06,0.0024,0.002
-9.956800e-06,0.0012,0.002
-9.956600e-06,-0.0004,0.0008
-9.956400e-06,-0.0008,0
-9.956200e-06,-0.0012,0.0004
-9.956000e-06,0,0.0016
-9.955800e-06,0.0004,0.002
-9.955600e-06,0.0008,0.0016
-9.955400e-06,-0.0012,-0.0008
-9.955200e-06,-0.0028,-0.0012
-9.955000e-06,-0.0012,0
-9.954800e-06,0,0.0024
-9.954600e-06,0.0008,0.0028
-9.954400e-06,0.0016,0.0012
-9.954200e-06,0.0004,-0.0008
-9.954000e-06,-0.0004,-0.0004
-9.953800e-06,-0.002,0.0012
-9.953600e-06,-0.0008,0.0016
-9.953400e-06,-0.0004,0
-9.953200e-06,0.0004,-0.0004
-9.953000e-06,0.0004,-0.0008
-9.952800e-06,-0.0008,0.0008
-9.952600e-06,-0.0008,0.0008
-9.952400e-06,-0.0008,0.0016
-9.952200e-06,0,0
-9.952000e-06,0.0012,0.0012
-9.951800e-06,0.0012,0.0012
-9.951600e-06,0.0004,0.0008
-9.951400e-06,0.0004,0.0004
-9.951200e-06,0,0.0004
-9.951000e-06,0,0.0004
-9.950800e-06,0.0004,0
-9.950600e-06,0.0008,0.0016
-9.950400e-06,0.0004,0.0012
-9.950200e-06,0,-0.0004
-9.950000e-06,-0.0012,-0.0008
-9.949800e-06,-0.0008,-0.0004
-9.949600e-06,-0.0004,0.002
-9.949400e-06,0.0008,0.0012
-9.949200e-06,0.0016,0.0008
-9.949000e-06,0.0008,-0.0012
-9.948800e-06,-0.0004,-0.0008
-9.948600e-06,-0.0008,0.0004
-9.948400e-06,-0.0004,0.0004
-9.948200e-06,-0.0004,0.0004
-9.948000e-06,0.0012,-0.0008
-9.947800e-06,0.0004,0
-9.947600e-06,-0.0004,-0.0004
-9.947400e-06,-0.0008,0.0004
-9.947200e-06,-0.002,0.0004
-9.947000e-06,0,-0.0008
-9.946800e-06,0.0008,0.0004
-9.946600e-06,0.002,-0.0008
-9.946400e-06,0.0016,0.0012
-9.946200e-06,-0.0004,0.0008
-9.946000e-06,-0.0016,-0.0004
-9.945800e-06,-0.0008,-0.0012
-9.945600e-06,0.0004,-0.0004
-9.945400e-06,0.002,0.0016
-9.945200e-06,0.0024,0.0016
-9.945000e-06,0.0004,0.0004
-9.944800e-06,-0.0004,-0.0008
-9.944600e-06,-0.0008,-0.0008
-9.944400e-06,0.0012,0.0004
-9.944200e-06,0.0016,0.0004
-9.944000e-06,0.0024,0.0012
-9.943800e-06,0.0012,-0.0008
-9.943600e-06,-0.0004,-0.0004
-9.943400e-06,-0.0004,-0.0004
-9.943200e-06,-0.0004,0.0004
-9.943000e-06,0.0008,0.0004
-9.942800e-06,0.002,0
-9.942600e-06,0.0024,0.0004
-9.942400e-06,0.0012,0.0008
-9.942200e-06,-0.0008,0.0008
-9.942000e-06,-0.0012,0
-9.941800e-06,-0.0004,-0.0004
-9.941600e-06,0.0024,0.0004
-9.941400e-06,0.0028,0.0008
-9.941200e-06,0.002,0.0012
-9.941000e-06,-0.0008,0
-9.940800e-06,-0.002,0
-9.940600e-06,-0.0008,-0.0012
-9.940400e-06,0.002,0.0008
-9.940200e-06,0.0032,0.002
-9.940000e-06,0.0024,0.0012
-9.939800e-06,0,-0.0012
-9.939600e-06,-0.0028,-0.002
-9.939400e-06,-0.0016,-0.0008
-9.939200e-06,0.0012,0.0012
-9.939000e-06,0.0036,0.002
-9.938800e-06,0.0032,0.0016
-9.938600e-06,-0.0004,0
-9.938400e-06,-0.0036,-0.002
-9.938200e-06,-0.0024,-0.0012
-9.938000e-06,-0.0004,0.0016
-9.937800e-06,0.0028,0.002
-9.937600e-06,0.0032,0.0016
-9.937400e-06,0.0008,-0.0004
-9.937200e-06,-0.0024,0
-9.937000e-06,-0.002,-0.0004
-9.936800e-06,-0.0004,0.0008
-9.936600e-06,0.0016,0.0008
-9.936400e-06,0.0024,0.0012
-9.936200e-06,0.0016,0.0008
-9.936000e-06,0.0004,0.0008
-9.935800e-06,-0.002,0
-9.935600e-06,-0.002,-0.0008
-9.935400e-06,0,0
-9.935200e-06,0.0028,0.0012
-9.935000e-06,0.0024,0.0012
-9.934800e-06,0.0012,0.0008
-9.934600e-06,-0.002,-0.002
-9.934400e-06,-0.0028,-0.0012
-9.934200e-06,-0.0008,-0.0004
-9.934000e-06,0.0028,0.0012
-9.933800e-06,0.0044,0.0016
-9.933600e-06,0.0024,0.0008
-9.933400e-06,-0.0012,-0.0008
-9.933200e-06,-0.0036,-0.002
-9.933000e-06,-0.0024,-0.0008
-9.932800e-06,0.0016,0.002
-9.932600e-06,0.0044,0.0024
-9.932400e-06,0.0028,0.002
-9.932200e-06,-0.0004,-0.0004
-9.932000e-06,-0.0032,-0.0016
-9.931800e-06,-0.0016,0
-9.931600e-06,0.0008,0.0016
-9.931400e-06,0.004,0.0012
-9.931200e-06,0.0044,0.0012
-9.931000e-06,0.0008,-0.0012
-9.930800e-06,-0.002,-0.0008
-9.930600e-06,-0.002,-0.0004
-9.930400e-06,0,-0.0004
-9.930200e-06,0.0028,0.0004
-9.930000e-06,0.0036,0.0012
-9.929800e-06,0.002,0.0008
-9.929600e-06,-0.0012,-0.0004
-9.929400e-06,-0.0024,-0.0012
-9.929200e-06,-0.0008,-0.0008
-9.929000e-06,0.0024,-0.0004
-9.928800e-06,0.004,0.002
-9.928600e-06,0.0036,0.0012
-9.928400e-06,0.0012,0.0004
-9.928200e-06,-0.0016,-0.0016
-9.928000e-06,-0.0028,-0.0008
-9.927800e-06,-0.0004,-0.0004
-9.927600e-06,0.0032,0.0012
-9.927400e-06,0.004,0.0012
-9.927200e-06,0.0024,-0.0004
-9.927000e-06,-0.0012,-0.0016
-9.926800e-06,-0.0032,-0.0008
-9.926600e-06,-0.0008,0.0008
-9.926400e-06,0.0024,0.0028
-9.926200e-06,0.0048,0.0016
-9.926000e-06,0.0044,0.0012
-9.925800e-06,0.0008,-0.0008
-9.925600e-06,-0.002,-0.0004
-9.925400e-06,-0.0024,0
-9.925200e-06,0.0016,0.0008
-9.925000e-06,0.0044,0.0008
-9.924800e-06,0.0036,0.0004
-9.924600e-06,0.0008,0
-9.924400e-06,-0.0028,0
-9.924200e-06,-0.002,0
-9.924000e-06,0.0004,0.0004
-9.923800e-06,0.0032,0.0016
-9.923600e-06,0.004,0.0012
-9.923400e-06,0.0024,0.0016
-9.923200e-06,-0.0008,0.0004
-9.923000e-06,-0.0012,-0.0012
-9.922800e-06,-0.0004,-0.0012
-9.922600e-06,0.0012,0.0004
-9.922400e-06,0.0032,0.0016
-9.922200e-06,0.002,0.002
-9.922000e-06,0.0004,-0.0004
-9.921800e-06,-0.0016,-0.0008
-9.921600e-06,-0.0016,-0.0012
-9.921400e-06,0.0012,0
-9.921200e-06,0.0032,0.002
-9.921000e-06,0.0032,0.0016
-9.920800e-06,0.0016,0.0004
-9.920600e-06,-0.0004,-0.0004
-9.920400e-06,-0.002,-0.0012
-9.920200e-06,-0.0008,0
-9.920000e-06,0.0008,0.0012
-9.919800e-06,0.0024,0.0008
-9.919600e-06,0.0032,0.0012
-9.919400e-06,-0.0008,-0.0004
-9.919200e-06,-0.002,-0.0004
-9.919000e-06,-0.002,0.0008
-9.918800e-06,0.0004,0.0004
-9.918600e-06,0.0028,0.0004
-9.918400e-06,0.0024,0.0004
-9.918200e-06,0,0.0004
-9.918000e-06,-0.0016,0
-9.917800e-06,-0.0024,-0.0012
-9.917600e-06,-0.0004,-0.0008
-9.917400e-06,0.002,0.0008
-9.917200e-06,0.0024,0.0008
-9.917000e-06,0.0008,0.0012
-9.916800e-06,-0.0004,0.0004
-9.916600e-06,-0.002,-0.002
-9.916400e-06,-0.0004,-0.0012
-9.916200e-06,0.0016,0.0004
-9.916000e-06,0.0028,0.0016
-9.915800e-06,0.0024,0.0016
-9.915600e-06,0,0.0004
-9.915400e-06,-0.0008,-0.0008
-9.915200e-06,-0.0016,-0.0008
-9.915000e-06,0,0
-9.914800e-06,0.002,0.0016
-9.914600e-06,0.0024,0.0008
-9.914400e-06,0.0016,0.0004
-9.914200e-06,0,-0.0008
-9.914000e-06,-0.0012,0
-9.913800e-06,-0.0008,-0.0004
-9.913600e-06,0.0012,0.0016
-9.913400e-06,0.0024,0.0016
-9.913200e-06,0.0028,0.0012
-9.913000e-06,0.0008,0
-9.912800e-06,-0.0016,-0.002
-9.912600e-06,-0.0008,-0.0012
-9.912400e-06,0.0012,0
-9.912200e-06,0.0024,0.0016
-9.912000e-06,0.0032,0.0016
-9.911800e-06,0.0004,0.0012
-9.911600e-06,0,-0.0004
-9.911400e-06,0,-0.0012
-9.911200e-06,0.0008,-0.0004
-9.911000e-06,0.0032,0.0008
-9.910800e-06,0.0028,0.0032
-9.910600e-06,0.0012,0.0012
-9.910400e-06,0,0
-9.910200e-06,-0.0008,-0.0024
-9.910000e-06,-0.0004,-0.0012
-9.909800e-06,0.0008,0.002
-9.909600e-06,0.002,0.0024
-9.909400e-06,0.0016,0.0012
-9.909200e-06,0.0008,-0.0004
-9.909000e-06,-0.0004,-0.0016
-9.908800e-06,0.0004,-0.0004
-9.908600e-06,0.0004,0.0004
-9.908400e-06,0.0008,0.0016
-9.908200e-06,0.0016,0.002
-9.908000e-06,0.0016,0.0012
-9.907800e-06,0.0008,-0.0008
-9.907600e-06,0.0004,-0.0008
-9.907400e-06,-0.0004,-0.0004
-9.907200e-06,0.0004,0.0008
-9.907000e-06,0.0016,0.002
-9.906800e-06,0.0012,0.0008
-9.906600e-06,0.0024,0
-9.906400e-06,0.0008,-0.0012
-9.906200e-06,0,-0.0016
-9.906000e-06,0,0.0004
-9.905800e-06,0.0004,0.0024
-9.905600e-06,0.002,0.0024
-9.905400e-06,0.0024,0.0016
-9.905200e-06,0.0008,-0.0008
-9.905000e-06,-0.0004,-0.0024
-9.904800e-06,-0.0008,0
-9.904600e-06,0.0004,0.0016
-9.904400e-06,0.0024,0.0032
-9.904200e-06,0.0016,0.0012
-9.904000e-06,0.0004,-0.0024
-9.903800e-06,0,-0.0024
-9.903600e-06,0,0
-9.903400e-06,0,0.0024
-9.903200e-06,0.0012,0.0028
-9.903000e-06,0.0012,0.0008
-9.902800e-06,0.0016,-0.0012
-9.902600e-06,0.0016,-0.0024
-9.902400e-06,0.0008,-0.0008
-9.902200e-06,-0.0004,0.0016
-9.902000e-06,-0.0012,0.0028
-9.901800e-06,0,0.0008
-9.901600e-06,0.0012,-0.0004
-9.901400e-06,0.002,-0.0008
-9.901200e-06,0.0012,-0.0004
-9.901000e-06,-0.0004,0.0008
-9.900800e-06,-0.0016,0.0008
-9.900600e-06,-0.0004,0.0016
-9.900400e-06,0.0008,0.0016
-9.900200e-06,0.002,-0.0004
-9.900000e-06,0.0012,-0.0016
-9.899800e-06,-0.0012,-0.0008
-9.899600e-06,-0.002,0.0008
-9.899400e-06,-0.0004,0.0032
-9.899200e-06,0.0012,0.002
-9.899000e-06,0.0024,0
-9.898800e-06,0.0012,-0.002
-9.898600e-06,-0.0004,-0.0024
-9.898400e-06,-0.0012,0.0012
-9.898200e-06,-0.0008,0.004
-9.898000e-06,0.0008,0.0032
-9.897800e-06,0.0016,0
-9.897600e-06,0.0012,-0.0024
-9.897400e-06,0.0004,-0.0028
-9.897200e-06,-0.0008,0
-9.897000e-06,-0.0012,0.0028
-9.896800e-06,0.0004,0.0028
-9.896600e-06,0.0008,-0.0004
-9.896400e-06,0.0016,-0.0012
-9.896200e-06,0.002,-0.0008
-9.896000e-06,0.0008,0.0008
-9.895800e-06,-0.0008,0.0024
-9.895600e-06,0,0.002
-9.895400e-06,0,0.0008
-9.895200e-06,0.0032,-0.0008
-9.895000e-06,0.004,0
-9.894800e-06,0.0024,0.0004
-9.894600e-06,-0.0004,0.0004
-9.894400e-06,-0.0028,0.0016
-9.894200e-06,-0.0012,0.0008
-9.894000e-06,0.0016,0.0008
-9.893800e-06,0.0036,-0.0004
-9.893600e-06,0.0016,-0.0012
-9.893400e-06,-0.0008,-0.0004
-9.893200e-06,-0.0028,0.002
-9.893000e-06,-0.0008,0.002
-9.892800e-06,0.002,0.0016
-9.892600e-06,0.0036,-0.0008
-9.892400e-06,0.0032,-0.0024
-9.892200e-06,-0.0016,-0.0016
-9.892000e-06,-0.0028,0.0012
-9.891800e-06,-0.0016,0.0028
-9.891600e-06,0.0008,0.0016
-9.891400e-06,0.0036,-0.0016
-9.891200e-06,0.0024,-0.0024
-9.891000e-06,0.0008,-0.0012
-9.890800e-06,-0.0016,0.0016
-9.890600e-06,-0.0012,0.0028
-9.890400e-06,0,0.0012
-9.890200e-06,0.0024,-0.0016
-9.890000e-06,0.0028,-0.0016
-9.889800e-06,0.0016,-0.0012
-9.889600e-06,0.0004,0.0012
-9.889400e-06,-0.0028,0.0012
-9.889200e-06,-0.0028,0.0004
-9.889000e-06,0,-0.0012
-9.888800e-06,0.0036,-0.0008
-9.888600e-06,0.004,-0.0004
-9.888400e-06,0.0004,0.0008
-9.888200e-06,-0.0024,0.0012
-9.888000e-06,-0.0024,0.0016
-9.887800e-06,-0.0004,0.0008
-9.887600e-06,0.0044,0.0004
-9.887400e-06,0.0052,0.0004
-9.887200e-06,0.0016,-0.0004
-9.887000e-06,-0.0028,-0.0004
-9.886800e-06,-0.0048,0.0008
-9.886600e-06,-0.0012,0.002
-9.886400e-06,0.0036,0.0016
-9.886200e-06,0.0044,0.0004
-9.886000e-06,0.002,-0.0008
-9.885800e-06,-0.0024,0
-9.885600e-06,-0.004,0.002
-9.885400e-06,-0.0008,0.0028
-9.885200e-06,0.0028,0.002
-9.885000e-06,0.0048,0
-9.884800e-06,0.0028,-0.0012
-9.884600e-06,-0.0012,0
-9.884400e-06,-0.004,0.0016
-9.884200e-06,-0.0028,0.0016
-9.884000e-06,0.0004,0.0008
-9.883800e-06,0.0024,-0.0012
-9.883600e-06,0.0036,-0.0008
-9.883400e-06,0.0004,0.0012
-9.883200e-06,-0.0028,0.0024
-9.883000e-06,-0.004,0.0016
-9.882800e-06,-0.0024,0.0008
-9.882600e-06,0.0016,-0.0008
-9.882400e-06,0.0044,0.0004
-9.882200e-06,0.0024,0
-9.882000e-06,-0.0012,0.0012
-9.881800e-06,-0.0048,0.0004
-9.881600e-06,-0.004,0.0008
-9.881400e-06,0.0012,0.0016
-9.881200e-06,0.0048,0.0008
-9.881000e-06,0.0044,0.0008
-9.880800e-06,-0.0004,0.0004
-9.880600e-06,-0.0056,-0.0012
-9.880400e-06,-0.004,0.0008
-9.880200e-06,0.0008,0.0024
-9.880000e-06,0.0056,0.0016
-9.879800e-06,0.006,0.0004
-9.879600e-06,0,-0.0004
-9.879400e-06,-0.0052,-0.0008
-9.879200e-06,-0.0044,0.0008
-9.879000e-06,-0.0004,0.0012
-9.878800e-06,0.004,0.0008
-9.878600e-06,0.0036,0
-9.878400e-06,-0.0004,-0.0008
-9.878200e-06,-0.004,0
-9.878000e-06,-0.0048,0.0012
-9.877800e-06,-0.0016,0.0004
-9.877600e-06,0.0028,0.0004
-9.877400e-06,0.0048,-0.0004
-9.877200e-06,0.0016,-0.0004
-9.877000e-06,-0.0008,0.0004
-9.876800e-06,-0.0032,0.0008
-9.876600e-06,-0.0024,0.0012
-9.876400e-06,0,0.0004
-9.876200e-06,0.0028,0.0004
-9.876000e-06,0.004,0.0008
-9.875800e-06,0.0008,0.0004
-9.875600e-06,-0.0028,0
-9.875400e-06,-0.0036,-0.0004
-9.875200e-06,-0.0012,0.0012
-9.875000e-06,0.0028,0.0012
-9.874800e-06,0.0048,0.0012
-9.874600e-06,0.002,0
-9.874400e-06,-0.0028,-0.0008
-9.874200e-06,-0.0052,-0.0004
-9.874000e-06,-0.002,0.0004
-9.873800e-06,0.0024,0.0012
-9.873600e-06,0.0052,0.0012
-9.873400e-06,0.0032,-0.0004
-9.873200e-06,-0.0008,-0.0008
-9.873000e-06,-0.0044,-0.0004
-9.872800e-06,-0.0024,0.0012
-9.872600e-06,0.0016,0.0016
-9.872400e-06,0.0036,0.0012
-9.872200e-06,0.0024,-0.0004
-9.872000e-06,-0.0008,-0.0008
-9.871800e-06,-0.004,-0.0008
-9.871600e-06,-0.002,0.0004
-9.871400e-06,0.0004,0.0012
-9.871200e-06,0.0028,-0.0004
-9.871000e-06,0.0024,-0.0004
-9.870800e-06,0,0
-9.870600e-06,-0.002,-0.0008
-9.870400e-06,-0.0024,0.0008
-9.870200e-06,-0.0012,0
-9.870000e-06,0.0016,0.0008
-9.869800e-06,0.0044,0.0016
-9.869600e-06,0.0016,0.0008
-9.869400e-06,-0.0008,-0.0012
-9.869200e-06,-0.0032,-0.0012
-9.869000e-06,-0.0016,-0.0012
-9.868800e-06,0.0004,0.0012
-9.868600e-06,0.0016,0.0012
-9.868400e-06,0.0024,0.0012
-9.868200e-06,-0.0004,-0.0008
-9.868000e-06,-0.0032,-0.0024
-9.867800e-06,-0.0024,-0.0012
-9.867600e-06,0.0004,0.0016
-9.867400e-06,0.0024,0.002
-9.867200e-06,0.0028,0.0016
-9.867000e-06,0.0012,-0.0008
-9.866800e-06,-0.0012,-0.0012
-9.866600e-06,-0.0028,-0.0004
-9.866400e-06,0,0.0016
-9.866200e-06,0.002,0.002
-9.866000e-06,0.0024,0.0012
-9.865800e-06,0.0004,0.0004
-9.865600e-06,-0.0004,0.0004
-9.865400e-06,-0.002,0.0008
-9.865200e-06,0.0004,0.0008
-9.865000e-06,0.0016,0.0012
-9.864800e-06,0.0016,0.0008
-9.864600e-06,0.0012,0.0004
-9.864400e-06,-0.0004,0.0004
-9.864200e-06,-0.0004,0
-9.864000e-06,0,0.0004
-9.863800e-06,-0.0004,0
-9.863600e-06,0.0008,0.0004
-9.863400e-06,0.0004,0.0016
-9.863200e-06,0.0008,0.0016
-9.863000e-06,-0.0008,0
-9.862800e-06,-0.0004,-0.0004
-9.862600e-06,-0.0004,0
-9.862400e-06,0.0008,0.0016
-9.862200e-06,0.0012,0.0016
-9.862000e-06,0.0004,0.0008
-9.861800e-06,-0.0008,-0.0004
-9.861600e-06,-0.0012,-0.0008
-9.861400e-06,0,-0.0004
-9.861200e-06,0.0004,0.002
-9.861000e-06,0.0004,0.0024
-9.860800e-06,0.0012,0.0008
-9.860600e-06,0.0004,-0.0012
-9.860400e-06,0,-0.0012
-9.860200e-06,0,-0.0008
-9.860000e-06,0.0008,0.002
-9.859800e-06,0.0004,0.0012
-9.859600e-06,0.0004,0.0004
-9.859400e-06,0,0
-9.859200e-06,0.0004,-0.0004
-9.859000e-06,0.0004,0
-9.858800e-06,0.0004,0.0008
