05_cherenkov/data/tek0002.csv

Model,MSO4104B
Firmware Version,3.20

Waveform Type,ANALOG
Point Format,Y
Horizontal Units,s
Horizontal Scale,4e-06
Horizontal Delay,-1.6e-07
Sample Interval,4e-10
Record Length,100000
Gating,0.0% to 100.0%
Probe Attenuation,1
Vertical Units,V
Vertical Offset,0
Vertical Scale,0.02
Vertical Position,-3.96
,
,
,
Label,
TIME,CH1
-2.016000e-05,0.0056
-2.015960e-05,0.0016
-2.015920e-05,0.0024
-2.015880e-05,0.0016
-2.015840e-05,-0.0024
-2.015800e-05,-0.0024
-2.015760e-05,-0.004
-2.015720e-05,-0.0032
-2.015680e-05,-0.0032
-2.015640e-05,-0.0032
-2.015600e-05,-0.0024
-2.015560e-05,0.0008
-2.015520e-05,0.0032
-2.015480e-05,0.0096
-2.015440e-05,0.0176
-2.015400e-05,0.0288
-2.015360e-05,0.036
-2.015320e-05,0.036
-2.015280e-05,0.0336
-2.015240e-05,0.028
-2.015200e-05,0.02
-2.015160e-05,0.016
-2.015120e-05,0.0088
-2.015080e-05,0.0064
-2.015040e-05,0.004
-2.015000e-05,0.0056
-2.014960e-05,0.0048
-2.014920e-05,0.004
-2.014880e-05,0.004
-2.014840e-05,0.0048
-2.014800e-05,0.0008
-2.014760e-05,0.0016
-2.014720e-05,0.0016
-2.014680e-05,0
-2.014640e-05,0.0016
-2.014600e-05,0.0016
-2.014560e-05,0.0032
-2.014520e-05,0.0048
-2.014480e-05,0.004
-2.014440e-05,0.0048
-2.014400e-05,0.004
-2.014360e-05,0.0024
-2.014320e-05,0.0024
-2.014280e-05,0
-2.014240e-05,0.0008
-2.014200e-05,0
-2.014160e-05,0
-2.014120e-05,0
-2.014080e-05,-0.0008
-2.014040e-05,-0.0016
-2.014000e-05,0.0008
-2.013960e-05,-0.0024
-2.013920e-05,-0.0008
-2.013880e-05,0.0008
-2.013840e-05,0.0008
-2.013800e-05,0.0016
-2.013760e-05,0.0016
-2.013720e-05,0.0016
-2.013680e-05,0.0016
-2.013640e-05,-0.0008
-2.013600e-05,0.0016
-2.013560e-05,0.0008
-2.013520e-05,0.0008
-2.013480e-05,0
-2.013440e-05,0
-2.013400e-05,-0.0008
-2.013360e-05,0
-2.013320e-05,-0.0008
-2.013280e-05,0
-2.013240e-05,-0.0024
-2.013200e-05,-0.0016
-2.013160e-05,-0.0008
-2.013120e-05,-0.0008
-2.013080e-05,0.0008
-2.013040e-05,0
-2.013000e-05,0.0008
-2.012960e-05,0.0016
-2.012920e-05,0.0024
-2.012880e-05,0.0016
-2.012840e-05,0.0032
-2.012800e-05,0.0016
-2.012760e-05,0.0008
-2.012720e-05,0.0016
-2.012680e-05,-0.0008
-2.012640e-05,0.0008
-2.012600e-05,0
-2.012560e-05,-0.0008
-2.012520e-05,-0.0008
-2.012480e-05,0
-2.012440e-05,0
-2.012400e-05,0.0016
-2.012360e-05,0
-2.012320e-05,0.0016
-2.012280e-05,0
-2.012240e-05,0.0008
-2.012200e-05,0.0024
-2.012160e-05,-0.0008
-2.012120e-05,0.0016
-2.012080e-05,0.0016
-2.012040e-05,0.0008
-2.012000e-05,0
-2.011960e-05,0
-2.011920e-05,0
-2.011880e-05,0
-2.011840e-05,-0.0008
-2.011800e-05,-0.0008
-2.011760e-05,-0.0008
-2.011720e-05,0
-2.011680e-05,0.0008
-2.011640e-05,0
-2.011600e-05,0.0008
-2.011560e-05,0.0008
-2.011520e-05,-0.0008
-2.011480e-05,0.0008
-2.011440e-05,0.0008
-2.011400e-05,0
-2.011360e-05,0.0016
-2.011320e-05,0.0008
-2.011280e-05,0
-2.011240e-05,0.0008
-2.011200e-05,0.0008
-2.011160e-05,-0.0008
-2.011120e-05,0
-2.011080e-05,0.0008
-2.011040e-05,0
-2.011000e-05,-0.0008
-2.010960e-05,0.0008
-2.010920e-05,-0.0008
-2.010880e-05,-0.0016
-2.010840e-05,-0.0008
-2.010800e-05,-0.0008
-2.010760e-05,-0.0016
-2.010720e-05,0.0016
-2.010680e-05,0.0008
-2.010640e-05,0.0016
-2.010600e-05,0.0016
-2.010560e-05,0
-2.010520e-05,0.0008
-2.010480e-05,0.0016
-2.010440e-05,-0.0008
-2.010400e-05,0.0016
-2.010360e-05,0.0008
-2.010320e-05,0
-2.010280e-05,0
-2.010240e-05,0.0008
-2.010200e-05,0.0008
-2.010160e-05,0
-2.010120e-05,-0.0008
-2.010080e-05,0.0016
-2.010040e-05,0.0016
-2.010000e-05,0.0032
-2.009960e-05,0.0064
-2.009920e-05,0.012
-2.009880e-05,0.0224
-2.009840e-05,0.0344
-2.009800e-05,0.0432
-2.009760e-05,0.048
-2.009720e-05,0.044
-2.009680e-05,0.0368
-2.009640e-05,0.0272
-2.009600e-05,0.0176
-2.009560e-05,0.016
-2.009520e-05,0.0136
-2.009480e-05,0.0096
-2.009440e-05,0.012
-2.009400e-05,0.0112
-2.009360e-05,0.0104
-2.009320e-05,0.0096
-2.009280e-05,0.0056
-2.009240e-05,0.0016
-2.009200e-05,0.0024
-2.009160e-05,0
-2.009120e-05,-0.0008
-2.009080e-05,-0.0016
-2.009040e-05,-0.0016
-2.009000e-05,0.0032
-2.008960e-05,0.0072
-2.008920e-05,0.016
-2.008880e-05,0.0232
-2.008840e-05,0.0248
-2.008800e-05,0.0272
-2.008760e-05,0.0248
-2.008720e-05,0.0184
-2.008680e-05,0.016
-2.008640e-05,0.0104
-2.008600e-05,0.0064
-2.008560e-05,0.008
-2.008520e-05,0.0032
-2.008480e-05,0.0016
-2.008440e-05,0.0024
-2.008400e-05,0.0008
-2.008360e-05,-0.0008
-2.008320e-05,-0.0008
-2.008280e-05,-0.0008
-2.008240e-05,-0.0008
-2.008200e-05,-0.0024
-2.008160e-05,-0.0008
-2.008120e-05,-0.0016
-2.008080e-05,-0.0008
-2.008040e-05,0.0024
-2.008000e-05,0.0008
-2.007960e-05,0.0016
-2.007920e-05,0.004
-2.007880e-05,0.0024
-2.007840e-05,0.0048
-2.007800e-05,0.004
-2.007760e-05,0.0016
-2.007720e-05,0.0032
-2.007680e-05,0
-2.007640e-05,0
-2.007600e-05,-0.0008
-2.007560e-05,-0.0016
-2.007520e-05,-0.0024
-2.007480e-05,-0.0016
-2.007440e-05,-0.0024
-2.007400e-05,0.0008
-2.007360e-05,-0.0016
-2.007320e-05,-0.0024
-2.007280e-05,0.0008
-2.007240e-05,-0.0008
-2.007200e-05,0.0024
-2.007160e-05,0.0024
-2.007120e-05,0
-2.007080e-05,0.0024
-2.007040e-05,0.0016
-2.007000e-05,0.0008
-2.006960e-05,0.0016
-2.006920e-05,0
-2.006880e-05,0
-2.006840e-05,-0.0008
-2.006800e-05,-0.0016
-2.006760e-05,-0.0016
-2.006720e-05,-0.0032
-2.006680e-05,-0.0016
-2.006640e-05,0
-2.006600e-05,-0.0032
-2.006560e-05,0.0016
-2.006520e-05,0.0016
-2.006480e-05,-0.0008
-2.006440e-05,0.0016
-2.006400e-05,0.0016
-2.006360e-05,0
-2.006320e-05,0.0032
-2.006280e-05,0
-2.006240e-05,0.0016
-2.006200e-05,0.0016
-2.006160e-05,0
-2.006120e-05,0.0016
-2.006080e-05,0
-2.006040e-05,0
-2.006000e-05,0
-2.005960e-05,-0.0024
-2.005920e-05,0
-2.005880e-05,-0.0008
-2.005840e-05,-0.0016
-2.005800e-05,0.0016
-2.005760e-05,-0.0008
-2.005720e-05,0
-2.005680e-05,0.0016
-2.005640e-05,-0.0008
-2.005600e-05,0.0016
-2.005560e-05,0.0016
-2.005520e-05,0
-2.005480e-05,0.0008
-2.005440e-05,0
-2.005400e-05,0.0008
-2.005360e-05,0
-2.005320e-05,0.0008
-2.005280e-05,0
-2.005240e-05,0
-2.005200e-05,-0.0016
-2.005160e-05,0
-2.005120e-05,-0.0016
-2.005080e-05,0
-2.005040e-05,0.0016
-2.005000e-05,-0.0016
-2.004960e-05,0
-2.004920e-05,0.0016
-2.004880e-05,-0.0016
-2.004840e-05,0
-2.004800e-05,0
-2.004760e-05,0.0008
-2.004720e-05,0.0016
-2.004680e-05,0.0008
-2.004640e-05,0.0016
-2.004600e-05,0.0016
-2.004560e-05,0
-2.004520e-05,0
-2.004480e-05,-0.0016
-2.004440e-05,0.0008
-2.004400e-05,0
-2.004360e-05,-0.0008
-2.004320e-05,0
-2.004280e-05,-0.0008
-2.004240e-05,-0.0008
-2.004200e-05,0.0008
-2.004160e-05,0
-2.004120e-05,0
-2.004080e-05,0.0008
-2.004040e-05,0.0016
-2.004000e-05,0
-2.003960e-05,0.0024
-2.003920e-05,0
-2.003880e-05,-0.0008
-2.003840e-05,0.0008
-2.003800e-05,0
-2.003760e-05,-0.0008
-2.003720e-05,-0.0016
-2.003680e-05,0
-2.003640e-05,-0.0016
-2.003600e-05,0
-2.003560e-05,0
-2.003520e-05,0
-2.003480e-05,0.0008
-2.003440e-05,-0.0008
-2.003400e-05,0
-2.003360e-05,0
-2.003320e-05,0.0008
-2.003280e-05,0
-2.003240e-05,0
-2.003200e-05,0.0016
-2.003160e-05,0.0008
-2.003120e-05,0.0008
-2.003080e-05,0
-2.003040e-05,0
-2.003000e-05,0
-2.002960e-05,0
-2.002920e-05,0
-2.002880e-05,-0.0008
-2.002840e-05,0.0008
-2.002800e-05,0
-2.002760e-05,0.0008
-2.002720e-05,-0.0008
-2.002680e-05,0.0008
-2.002640e-05,0
-2.002600e-05,-0.0008
-2.002560e-05,-0.0008
-2.002520e-05,0
-2.002480e-05,0.0008
-2.002440e-05,0.0008
-2.002400e-05,0.0008
-2.002360e-05,-0.0008
-2.002320e-05,0.0016
-2.002280e-05,0
-2.002240e-05,0.0016
-2.002200e-05,0
-2.002160e-05,0
-2.002120e-05,0.0024
-2.002080e-05,0
-2.002040e-05,0
-2.002000e-05,0
-2.001960e-05,-0.0008
-2.001920e-05,0
-2.001880e-05,0
-2.001840e-05,0
-2.001800e-05,0.0016
-2.001760e-05,0.0008
-2.001720e-05,0.0008
-2.001680e-05,0
-2.001640e-05,0
-2.001600e-05,0
-2.001560e-05,0
-2.001520e-05,-0.0008
-2.001480e-05,0.0016
-2.001440e-05,0.0008
-2.001400e-05,0
-2.001360e-05,0.0008
-2.001320e-05,-0.0016
-2.001280e-05,0
-2.001240e-05,0.0008
-2.001200e-05,-0.0008
-2.001160e-05,0
-2.001120e-05,0.0016
-2.001080e-05,0
-2.001040e-05,0.0016
-2.001000e-05,0
-2.000960e-05,0
-2.000920e-05,0
-2.000880e-05,0.0008
-2.000840e-05,0.0016
-2.000800e-05,0
-2.000760e-05,-0.0008
-2.000720e-05,0.0008
-2.000680e-05,0
-2.000640e-05,-0.0008
-2.000600e-05,0
-2.000560e-05,-0.0024
-2.000520e-05,0.0008
-2.000480e-05,0
-2.000440e-05,0
-2.000400e-05,0.0008
-2.000360e-05,0.0008
-2.000320e-05,0.0008
-2.000280e-05,0.0008
-2.000240e-05,0
-2.000200e-05,0
-2.000160e-05,0
-2.000120e-05,-0.0008
-2.000080e-05,0
-2.000040e-05,0.0008
-2.000000e-05,0.0008
-1.999960e-05,0
-1.999920e-05,-0.0008
-1.999880e-05,-0.0008
-1.999840e-05,0.0016
-1.999800e-05,0
-1.999760e-05,0.0016
-1.999720e-05,0.0016
-1.999680e-05,0.0008
-1.999640e-05,0
-1.999600e-05,0.0008
-1.999560e-05,0.0008
-1.999520e-05,0
-1.999480e-05,0
-1.999440e-05,0.0016
-1.999400e-05,0.0008
-1.999360e-05,-0.0016
-1.999320e-05,0.0016
-1.999280e-05,-0.0016
-1.999240e-05,0
-1.999200e-05,0.0008
-1.999160e-05,0
-1.999120e-05,0.0008
-1.999080e-05,0.0016
-1.999040e-05,-0.0008
-1.999000e-05,0
-1.998960e-05,0.0008
-1.998920e-05,-0.0016
-1.998880e-05,0
-1.998840e-05,-0.0008
-1.998800e-05,0
-1.998760e-05,0.0008
-1.998720e-05,0.0016
-1.998680e-05,0.0016
-1.998640e-05,0
-1.998600e-05,0
-1.998560e-05,0.0016
-1.998520e-05,-0.0008
-1.998480e-05,0
-1.998440e-05,0
-1.998400e-05,-0.0008
-1.998360e-05,0.0008
-1.998320e-05,0
-1.998280e-05,-0.0008
-1.998240e-05,0.0008
-1.998200e-05,0
-1.998160e-05,0
-1.998120e-05,0.0016
-1.998080e-05,0
-1.998040e-05,0
-1.998000e-05,0.0008
-1.997960e-05,0
-1.997920e-05,0.0008
-1.997880e-05,-0.0016
-1.997840e-05,0.0016
-1.997800e-05,0.0016
-1.997760e-05,0.0008
-1.997720e-05,0.0024
-1.997680e-05,0.0064
-1.997640e-05,0.0112
-1.997600e-05,0.0272
-1.997560e-05,0.0424
-1.997520e-05,0.0584
-1.997480e-05,0.0688
-1.997440e-05,0.068
-1.997400e-05,0.0584
-1.997360e-05,0.0472
-1.997320e-05,0.0336
-1.997280e-05,0.0264
-1.997240e-05,0.0216
-1.997200e-05,0.0176
-1.997160e-05,0.0168
-1.997120e-05,0.0152
-1.997080e-05,0.0152
-1.997040e-05,0.012
-1.997000e-05,0.0064
-1.996960e-05,0.0064
-1.996920e-05,0
-1.996880e-05,0
-1.996840e-05,-0.0008
-1.996800e-05,-0.0032
-1.996760e-05,-0.0056
-1.996720e-05,-0.0024
-1.996680e-05,-0.0032
-1.996640e-05,0
-1.996600e-05,0.004
-1.996560e-05,0.004
-1.996520e-05,0.0064
-1.996480e-05,0.0064
-1.996440e-05,0.0064
-1.996400e-05,0.008
-1.996360e-05,0.008
-1.996320e-05,0.0072
-1.996280e-05,0.004
-1.996240e-05,0.0032
-1.996200e-05,0.0016
-1.996160e-05,-0.0008
-1.996120e-05,-0.0032
-1.996080e-05,-0.0032
-1.996040e-05,-0.0064
-1.996000e-05,-0.0024
-1.995960e-05,-0.0024
-1.995920e-05,-0.0032
-1.995880e-05,-0.0008
-1.995840e-05,-0.0008
-1.995800e-05,0.0008
-1.995760e-05,0.0016
-1.995720e-05,0.0024
-1.995680e-05,0.0016
-1.995640e-05,0.0032
-1.995600e-05,0.0032
-1.995560e-05,0.0016
-1.995520e-05,0.0024
-1.995480e-05,0.0016
-1.995440e-05,0.0008
-1.995400e-05,0.0008
-1.995360e-05,-0.0008
-1.995320e-05,-0.0032
-1.995280e-05,-0.0024
-1.995240e-05,-0.0024
-1.995200e-05,-0.0024
-1.995160e-05,-0.0008
-1.995120e-05,-0.0008
-1.995080e-05,0
-1.995040e-05,0
-1.995000e-05,0.0016
-1.994960e-05,0.0008
-1.994920e-05,0.0016
-1.994880e-05,0.0032
-1.994840e-05,0.0032
-1.994800e-05,0.0016
-1.994760e-05,0.0016
-1.994720e-05,0.0008
-1.994680e-05,0.0008
-1.994640e-05,0
-1.994600e-05,-0.0016
-1.994560e-05,-0.0016
-1.994520e-05,-0.0016
-1.994480e-05,-0.0008
-1.994440e-05,-0.0008
-1.994400e-05,-0.0024
-1.994360e-05,0
-1.994320e-05,0
-1.994280e-05,0
-1.994240e-05,0.0024
-1.994200e-05,0.0016
-1.994160e-05,0.0016
-1.994120e-05,0.0024
-1.994080e-05,0.0008
-1.994040e-05,0.0024
-1.994000e-05,0.0016
-1.993960e-05,0.0008
-1.993920e-05,0.0032
-1.993880e-05,-0.0008
-1.993840e-05,0
-1.993800e-05,0
-1.993760e-05,-0.0008
-1.993720e-05,-0.0008
-1.993680e-05,-0.0016
-1.993640e-05,-0.0008
-1.993600e-05,0
-1.993560e-05,-0.0016
-1.993520e-05,0.0008
-1.993480e-05,0
-1.993440e-05,0
-1.993400e-05,0.0024
-1.993360e-05,0.0016
-1.993320e-05,0.0016
-1.993280e-05,0.0032
-1.993240e-05,-0.0016
-1.993200e-05,0.0008
-1.993160e-05,0.0016
-1.993120e-05,-0.0008
-1.993080e-05,0.0008
-1.993040e-05,0.0008
-1.993000e-05,-0.0008
-1.992960e-05,-0.0008
-1.992920e-05,-0.0016
-1.992880e-05,0
-1.992840e-05,-0.0016
-1.992800e-05,0
-1.992760e-05,0.0008
-1.992720e-05,0
-1.992680e-05,0.0008
-1.992640e-05,0.0016
-1.992600e-05,0
-1.992560e-05,0.0016
-1.992520e-05,0.0024
-1.992480e-05,0.0008
-1.992440e-05,0.0024
-1.992400e-05,0.0016
-1.992360e-05,-0.0016
-1.992320e-05,0.0008
-1.992280e-05,0
-1.992240e-05,-0.0008
-1.992200e-05,-0.0008
-1.992160e-05,0
-1.992120e-05,-0.0008
-1.992080e-05,-0.0008
-1.992040e-05,0.0008
-1.992000e-05,0
-1.991960e-05,-0.0008
-1.991920e-05,0.0016
-1.991880e-05,0
-1.991840e-05,0
-1.991800e-05,0.0016
-1.991760e-05,-0.0008
-1.991720e-05,-0.0008
-1.991680e-05,0.0024
-1.991640e-05,-0.0008
-1.991600e-05,0
-1.991560e-05,0.0008
-1.991520e-05,-0.0008
-1.991480e-05,0.0008
-1.991440e-05,0.0008
-1.991400e-05,0
-1.991360e-05,0
-1.991320e-05,0
-1.991280e-05,-0.0008
-1.991240e-05,-0.0008
-1.991200e-05,0.0008
-1.991160e-05,0
-1.991120e-05,-0.0008
-1.991080e-05,0.0016
-1.991040e-05,0
-1.991000e-05,0.0008
-1.990960e-05,0.0016
-1.990920e-05,0.0008
-1.990880e-05,0
-1.990840e-05,0
-1.990800e-05,0.0008
-1.990760e-05,0.0016
-1.990720e-05,0.0008
-1.990680e-05,-0.0008
-1.990640e-05,0.0008
-1.990600e-05,-0.0016
-1.990560e-05,0.0008
-1.990520e-05,0.0008
-1.990480e-05,-0.0008
-1.990440e-05,0.0008
-1.990400e-05,-0.0008
-1.990360e-05,0.0008
-1.990320e-05,0.0016
-1.990280e-05,-0.0008
-1.990240e-05,-0.0008
-1.990200e-05,0.0016
-1.990160e-05,0
-1.990120e-05,0.0008
-1.990080e-05,-0.0008
-1.990040e-05,0
-1.990000e-05,-0.0016
-1.989960e-05,0
-1.989920e-05,0.0016
-1.989880e-05,0.0016
-1.989840e-05,-0.0008
-1.989800e-05,0.0008
-1.989760e-05,0
-1.989720e-05,0
-1.989680e-05,0
-1.989640e-05,0
-1.989600e-05,0
-1.989560e-05,0
-1.989520e-05,0.0008
-1.989480e-05,0.0008
-1.989440e-05,0.0008
-1.989400e-05,0.0008
-1.989360e-05,0.0008
-1.989320e-05,0
-1.989280e-05,0.0032
-1.989240e-05,-0.0008
-1.989200e-05,-0.0008
-1.989160e-05,0
-1.989120e-05,0
-1.989080e-05,0.0016
-1.989040e-05,-0.0008
-1.989000e-05,0
-1.988960e-05,0
-1.988920e-05,0.0008
-1.988880e-05,0.0008
-1.988840e-05,0
-1.988800e-05,0.0008
-1.988760e-05,0
-1.988720e-05,0
-1.988680e-05,0.0016
-1.988640e-05,0
-1.988600e-05,0.0016
-1.988560e-05,0.0016
-1.988520e-05,0
-1.988480e-05,0
-1.988440e-05,0.0008
-1.988400e-05,0
-1.988360e-05,0
-1.988320e-05,0.0008
-1.988280e-05,0.0008
-1.988240e-05,0
-1.988200e-05,0
-1.988160e-05,0
-1.988120e-05,-0.0008
-1.988080e-05,0
-1.988040e-05,0
-1.988000e-05,0.0008
-1.987960e-05,0
-1.987920e-05,0.0008
-1.987880e-05,0.0008
-1.987840e-05,0.0008
-1.987800e-05,0.0008
-1.987760e-05,0
-1.987720e-05,0
-1.987680e-05,-0.0008
-1.987640e-05,0.0008
-1.987600e-05,0.0008
-1.987560e-05,0.0008
-1.987520e-05,0.0008
-1.987480e-05,0.0008
-1.987440e-05,0
-1.987400e-05,0.0008
-1.987360e-05,0.0008
-1.987320e-05,0.0008
-1.987280e-05,0
-1.987240e-05,0.0008
-1.987200e-05,0.0008
-1.987160e-05,0
-1.987120e-05,0.0008
-1.987080e-05,0.0008
-1.987040e-05,0
-1.987000e-05,0.0016
-1.986960e-05,0
-1.986920e-05,0
-1.986880e-05,0.0008
-1.986840e-05,0
-1.986800e-05,-0.0008
-1.986760e-05,0.0008
-1.986720e-05,-0.0016
-1.986680e-05,0
-1.986640e-05,-0.0008
-1.986600e-05,0
-1.986560e-05,0
-1.986520e-05,0.0008
-1.986480e-05,0.0016
-1.986440e-05,0
-1.986400e-05,-0.0008
-1.986360e-05,0.0016
-1.986320e-05,0
-1.986280e-05,0
-1.986240e-05,0.0016
-1.986200e-05,-0.0008
-1.986160e-05,0.0008
-1.986120e-05,0.0016
-1.986080e-05,-0.0008
-1.986040e-05,0
-1.986000e-05,0.0016
-1.985960e-05,0
-1.985920e-05,0.0008
-1.985880e-05,0.0024
-1.985840e-05,0.0016
-1.985800e-05,0.0008
-1.985760e-05,0.0016
-1.985720e-05,0.0056
-1.985680e-05,0.0064
-1.985640e-05,0.0128
-1.985600e-05,0.0256
-1.985560e-05,0.036
-1.985520e-05,0.0464
-1.985480e-05,0.0536
-1.985440e-05,0.0512
-1.985400e-05,0.0504
-1.985360e-05,0.0416
-1.985320e-05,0.0304
-1.985280e-05,0.0256
-1.985240e-05,0.0184
-1.985200e-05,0.0144
-1.985160e-05,0.0144
-1.985120e-05,0.0104
-1.985080e-05,0.012
-1.985040e-05,0.0072
-1.985000e-05,0.0056
-1.984960e-05,0.0048
-1.984920e-05,0
-1.984880e-05,-0.0008
-1.984840e-05,-0.0008
-1.984800e-05,-0.0032
-1.984760e-05,-0.0008
-1.984720e-05,-0.0032
-1.984680e-05,-0.0024
-1.984640e-05,0.0016
-1.984600e-05,0
-1.984560e-05,0.0024
-1.984520e-05,0.0048
-1.984480e-05,0.0032
-1.984440e-05,0.0064
-1.984400e-05,0.004
-1.984360e-05,0.004
-1.984320e-05,0.004
-1.984280e-05,0.0032
-1.984240e-05,0
-1.984200e-05,0
-1.984160e-05,-0.0032
-1.984120e-05,-0.0016
-1.984080e-05,-0.0032
-1.984040e-05,-0.004
-1.984000e-05,-0.0016
-1.983960e-05,-0.0024
-1.983920e-05,-0.0016
-1.983880e-05,-0.0016
-1.983840e-05,0
-1.983800e-05,0.0016
-1.983760e-05,0.0016
-1.983720e-05,0.0008
-1.983680e-05,0.0032
-1.983640e-05,0.0008
-1.983600e-05,0.0016
-1.983560e-05,0.0024
-1.983520e-05,0.0016
-1.983480e-05,0.0016
-1.983440e-05,0
-1.983400e-05,0
-1.983360e-05,-0.0008
-1.983320e-05,-0.0024
-1.983280e-05,-0.0024
-1.983240e-05,-0.0024
-1.983200e-05,-0.0016
-1.983160e-05,-0.0016
-1.983120e-05,-0.0016
-1.983080e-05,0.0008
-1.983040e-05,0
-1.983000e-05,0.0016
-1.982960e-05,0.0024
-1.982920e-05,0.0016
-1.982880e-05,0.0032
-1.982840e-05,0.0024
-1.982800e-05,0.0024
-1.982760e-05,0.0008
-1.982720e-05,0.0008
-1.982680e-05,-0.0008
-1.982640e-05,-0.0008
-1.982600e-05,0
-1.982560e-05,-0.0016
-1.982520e-05,-0.0024
-1.982480e-05,-0.0016
-1.982440e-05,-0.0016
-1.982400e-05,0
-1.982360e-05,0.0008
-1.982320e-05,0.0008
-1.982280e-05,-0.0008
-1.982240e-05,0
-1.982200e-05,0.0016
-1.982160e-05,0.0008
-1.982120e-05,0.0024
-1.982080e-05,0.0016
-1.982040e-05,0.0016
-1.982000e-05,0.0016
-1.981960e-05,0.0008
-1.981920e-05,0.0008
-1.981880e-05,-0.0008
-1.981840e-05,0
-1.981800e-05,0
-1.981760e-05,-0.0008
-1.981720e-05,0
-1.981680e-05,0
-1.981640e-05,-0.0024
-1.981600e-05,0
-1.981560e-05,-0.0008
-1.981520e-05,-0.0008
-1.981480e-05,0.0016
-1.981440e-05,0
-1.981400e-05,0.0016
-1.981360e-05,0.0016
-1.981320e-05,0
-1.981280e-05,0.0008
-1.981240e-05,0
-1.981200e-05,0.0008
-1.981160e-05,0.0008
-1.981120e-05,0.0008
-1.981080e-05,0.0016
-1.981040e-05,-0.0008
-1.981000e-05,-0.0016
-1.980960e-05,0.0008
-1.980920e-05,-0.0008
-1.980880e-05,-0.0008
-1.980840e-05,0.0008
-1.980800e-05,-0.0016
-1.980760e-05,0
-1.980720e-05,0.0008
-1.980680e-05,0.0008
-1.980640e-05,0.0008
-1.980600e-05,0
-1.980560e-05,0.0008
-1.980520e-05,0
-1.980480e-05,0
-1.980440e-05,0.0008
-1.980400e-05,0
-1.980360e-05,0
-1.980320e-05,0.0016
-1.980280e-05,-0.0008
-1.980240e-05,-0.0008
-1.980200e-05,0
-1.980160e-05,-0.0016
-1.980120e-05,-0.0008
-1.980080e-05,0
-1.980040e-05,-0.0024
-1.980000e-05,0.0008
-1.979960e-05,0
-1.979920e-05,0.0008
-1.979880e-05,0.0008
-1.979840e-05,0
-1.979800e-05,0.0008
-1.979760e-05,0.0016
-1.979720e-05,0.0008
-1.979680e-05,0.0016
-1.979640e-05,-0.0016
-1.979600e-05,0.0008
-1.979560e-05,0
-1.979520e-05,-0.0016
-1.979480e-05,0.0016
-1.979440e-05,0
-1.979400e-05,0
-1.979360e-05,0.0016
-1.979320e-05,0
-1.979280e-05,0.0008
-1.979240e-05,0.0008
-1.979200e-05,0
-1.979160e-05,-0.0008
-1.979120e-05,0.0008
-1.979080e-05,0
-1.979040e-05,0
-1.979000e-05,0.0008
-1.978960e-05,0
-1.978920e-05,-0.0016
-1.978880e-05,0.0008
-1.978840e-05,0.0016
-1.978800e-05,0.0008
-1.978760e-05,0
-1.978720e-05,0.0008
-1.978680e-05,-0.0008
-1.978640e-05,0
-1.978600e-05,0
-1.978560e-05,-0.0008
-1.978520e-05,0
-1.978480e-05,0.0016
-1.978440e-05,0
-1.978400e-05,0
-1.978360e-05,0.0016
-1.978320e-05,0.0008
-1.978280e-05,0
-1.978240e-05,0.0016
-1.978200e-05,0.0008
-1.978160e-05,-0.0008
-1.978120e-05,0
-1.978080e-05,0
-1.978040e-05,0
-1.978000e-05,0.0008
-1.977960e-05,0.0008
-1.977920e-05,0
-1.977880e-05,0
-1.977840e-05,0.0008
-1.977800e-05,0
-1.977760e-05,0.0016
-1.977720e-05,0.004
-1.977680e-05,0.0048
-1.977640e-05,0.0088
-1.977600e-05,0.0152
-1.977560e-05,0.02
-1.977520e-05,0.0296
-1.977480e-05,0.04
-1.977440e-05,0.0512
-1.977400e-05,0.0568
-1.977360e-05,0.0592
-1.977320e-05,0.0528
-1.977280e-05,0.0464
-1.977240e-05,0.0416
-1.977200e-05,0.0416
-1.977160e-05,0.0464
-1.977120e-05,0.0632
-1.977080e-05,0.0848
-1.977040e-05,0.1016
-1.977000e-05,0.1056
-1.976960e-05,0.0928
-1.976920e-05,0.0728
-1.976880e-05,0.0552
-1.976840e-05,0.0392
-1.976800e-05,0.0256
-1.976760e-05,0.0216
-1.976720e-05,0.0176
-1.976680e-05,0.016
-1.976640e-05,0.0176
-1.976600e-05,0.0168
-1.976560e-05,0.016
-1.976520e-05,0.0144
