06_Rb_spectroscopy/data/TEK00003.CSV

Model,TBS2074B
Firmware Version,v1.31.16

Point Format,Y,,,Point Format,Y
Horizontal Units,S,,,Horizontal Units,S
Horizontal Scale,0.0004,,,Horizontal Scale,0.0002
Sample Interval,3.2e-06,,,Sample Interval,1.6e-06
Filter Frequency,2e+08,,,Filter Frequency,2e+08
Record Length,2000,,,Record Length,2000
Gating,0.0% to 100.0%,0.0% to 100.0%,,Gating,0.0% to 100.0%
Probe Attenuation,10,10,,Probe Attenuation,10
Vertical Units,V,V,,Vertical Units,V
Vertical Offset,0,0,,Vertical Offset,0
Vertical Scale,20,0.01,,Vertical Scale,0.01
Label,,,,Label,
TIME,CH1,CH2,,TIME,REF1
-2.736e-03,14,0.0398,,-6.640e-04,0.0398
-2.733e-03,14.0031,0.0398,,-6.624e-04,0.0398
-2.730e-03,14,0.0398,,-6.608e-04,0.0398
-2.726e-03,14.0031,0.0398,,-6.592e-04,0.0398
-2.723e-03,14,0.0398,,-6.576e-04,0.0398
-2.720e-03,14,0.0398,,-6.560e-04,0.0398
-2.717e-03,14,0.0398,,-6.544e-04,0.0398
-2.714e-03,14,0.0398,,-6.528e-04,0.0398
-2.710e-03,14,0.0398,,-6.512e-04,0.0398
-2.707e-03,14,0.0398,,-6.496e-04,0.0398
-2.704e-03,14,0.0398,,-6.480e-04,0.0398
-2.701e-03,14.0031,0.0398,,-6.464e-04,0.0398
-2.698e-03,14,0.0398,,-6.448e-04,0.0398
-2.694e-03,14,0.0398,,-6.432e-04,0.0398
-2.691e-03,14.0031,0.0398,,-6.416e-04,0.0398
-2.688e-03,14,0.0398,,-6.400e-04,0.0398
-2.685e-03,14,0.0398,,-6.384e-04,0.0398
-2.682e-03,14,0.0398,,-6.368e-04,0.0398
-2.678e-03,14,0.0398,,-6.352e-04,0.0398
-2.675e-03,14,0.0398,,-6.336e-04,0.0398
-2.672e-03,14,0.0398,,-6.320e-04,0.0398
-2.669e-03,14,0.0398,,-6.304e-04,0.0398
-2.666e-03,13.9969,0.0398,,-6.288e-04,0.0398
-2.662e-03,14,0.0398,,-6.272e-04,0.0398
-2.659e-03,14,0.0398,,-6.256e-04,0.0398
-2.656e-03,14,0.0398,,-6.240e-04,0.0398
-2.653e-03,14.0031,0.0398,,-6.224e-04,0.0398
-2.650e-03,14.0031,0.0398,,-6.208e-04,0.0398
-2.646e-03,14,0.0398,,-6.192e-04,0.0398
-2.643e-03,14,0.0398,,-6.176e-04,0.0398
-2.640e-03,14,0.0398,,-6.160e-04,0.0398
-2.637e-03,14,0.0398,,-6.144e-04,0.0398
-2.634e-03,14,0.0398,,-6.128e-04,0.0398
-2.630e-03,14.0031,0.0398,,-6.112e-04,0.0398
-2.627e-03,14,0.0398,,-6.096e-04,0.0398
-2.624e-03,14,0.0398,,-6.080e-04,0.0398
-2.621e-03,14,0.0398,,-6.064e-04,0.0398
-2.618e-03,14,0.0398,,-6.048e-04,0.0398
-2.614e-03,14.0031,0.0398,,-6.032e-04,0.0398
-2.611e-03,14,0.0398,,-6.016e-04,0.0398
-2.608e-03,14,0.0398,,-6.000e-04,0.0398
-2.605e-03,14,0.0398,,-5.984e-04,0.0398
-2.602e-03,14,0.0398,,-5.968e-04,0.0398
-2.598e-03,14,0.0398,,-5.952e-04,0.0398
-2.595e-03,14,0.0398,,-5.936e-04,0.0398
-2.592e-03,14,0.0398,,-5.920e-04,0.0398
-2.589e-03,14.0031,0.0398,,-5.904e-04,0.0398
-2.586e-03,14.0031,0.0398,,-5.888e-04,0.0398
-2.582e-03,14.0031,0.0398,,-5.872e-04,0.0398
-2.579e-03,14.0031,0.0398,,-5.856e-04,0.0398
-2.576e-03,14,0.0398,,-5.840e-04,0.0398
-2.573e-03,14.0031,0.0398,,-5.824e-04,0.0398
-2.570e-03,14.7531,0.0398,,-5.808e-04,0.0398
-2.566e-03,14.8031,0.0398,,-5.792e-04,0.0398
-2.563e-03,15.5969,0.0398,,-5.776e-04,0.0398
-2.560e-03,16.8875,0.0398,,-5.760e-04,0.0398
-2.557e-03,19,0.0398,,-5.744e-04,0.0398
-2.554e-03,21.9937,0.0398,,-5.728e-04,0.0398
-2.550e-03,24.8375,0.0398,,-5.712e-04,0.0398
-2.547e-03,26.7719,0.0398,,-5.696e-04,0.0398
-2.544e-03,27.075,0.0398,,-5.680e-04,0.0398
-2.541e-03,26.0281,0.0398,,-5.664e-04,0.0398
-2.538e-03,23.6094,0.0398,,-5.648e-04,0.0398
-2.534e-03,20.9969,0.0398,,-5.632e-04,0.0398
-2.531e-03,18.8094,0.0398,,-5.616e-04,0.0398
-2.528e-03,17.2062,0.0398,,-5.600e-04,0.0398
-2.525e-03,16.4,0.0398,,-5.584e-04,0.0398
-2.522e-03,15.6031,0.0398,,-5.568e-04,0.0398
-2.518e-03,15.2437,0.0398,,-5.552e-04,0.0398
-2.515e-03,14.8031,0.0398,,-5.536e-04,0.0398
-2.512e-03,14.8,0.0398,,-5.520e-04,0.0398
-2.509e-03,14.8,0.0398,,-5.504e-04,0.0398
-2.506e-03,14.6687,0.0398,,-5.488e-04,0.0398
-2.502e-03,14.6344,0.0398,,-5.472e-04,0.0398
-2.499e-03,14.3875,0.0398,,-5.456e-04,0.0398
-2.496e-03,14.2031,0.0398,,-5.440e-04,0.0398
-2.493e-03,14.1812,0.0398,,-5.424e-04,0.0398
-2.490e-03,14.0375,0.0398,,-5.408e-04,0.0398
-2.486e-03,14.0031,0.0398,,-5.392e-04,0.0398
-2.483e-03,14.0031,0.0398,,-5.376e-04,0.0398
-2.480e-03,14.0031,0.0398,,-5.360e-04,0.0398
-2.477e-03,14,0.0398,,-5.344e-04,0.0398
-2.474e-03,14.0031,0.0398,,-5.328e-04,0.0398
-2.470e-03,14.0031,0.0398,,-5.312e-04,0.0398
-2.467e-03,14.0031,0.0398,,-5.296e-04,0.0398
-2.464e-03,14.0031,0.0398,,-5.280e-04,0.0398
-2.461e-03,14,0.0398,,-5.264e-04,0.0398
-2.458e-03,14.0031,0.0398,,-5.248e-04,0.0398
-2.454e-03,14,0.0398,,-5.232e-04,0.0398
-2.451e-03,14,0.0398,,-5.216e-04,0.0398
-2.448e-03,14.0031,0.0398,,-5.200e-04,0.0398
-2.445e-03,14.0031,0.0398,,-5.184e-04,0.0398
-2.442e-03,14,0.0398,,-5.168e-04,0.0398
-2.438e-03,14.0031,0.0398,,-5.152e-04,0.0398
-2.435e-03,14,0.0398,,-5.136e-04,0.0398
-2.432e-03,14.0031,0.0398,,-5.120e-04,0.0398
-2.429e-03,14,0.0398,,-5.104e-04,0.0398
-2.426e-03,14,0.0398,,-5.088e-04,0.0398
-2.422e-03,14,0.0398,,-5.072e-04,0.0398
-2.419e-03,14,0.0398,,-5.056e-04,0.0398
-2.416e-03,14,0.0398,,-5.040e-04,0.0398
-2.413e-03,14,0.0398,,-5.024e-04,0.0398
-2.410e-03,14,0.0398,,-5.008e-04,0.0398
-2.406e-03,14.0031,0.0398,,-4.992e-04,0.0398
-2.403e-03,14,0.0398,,-4.976e-04,0.0398
-2.400e-03,14,0.0398,,-4.960e-04,0.0398
-2.397e-03,14,0.0398,,-4.944e-04,0.0398
-2.394e-03,14,0.0398,,-4.928e-04,0.0398
-2.390e-03,14,0.0398,,-4.912e-04,0.0398
-2.387e-03,14.0031,0.0398,,-4.896e-04,0.0398
-2.384e-03,14,0.0398,,-4.880e-04,0.0398
-2.381e-03,14,0.0398,,-4.864e-04,0.0398
-2.378e-03,14.0031,0.0398,,-4.848e-04,0.0398
-2.374e-03,14,0.0398,,-4.832e-04,0.0398
-2.371e-03,14,0.0398,,-4.816e-04,0.0398
-2.368e-03,14.0031,0.0398,,-4.800e-04,0.0398
-2.365e-03,14,0.0398,,-4.784e-04,0.0398
-2.362e-03,14,0.0398,,-4.768e-04,0.0398
-2.358e-03,14,0.0398,,-4.752e-04,0.0398
-2.355e-03,14,0.0398,,-4.736e-04,0.0398
-2.352e-03,14,0.0398,,-4.720e-04,0.0398
-2.349e-03,14,0.0398,,-4.704e-04,0.0398
-2.346e-03,14,0.0398,,-4.688e-04,0.0398
-2.342e-03,14.0031,0.0398,,-4.672e-04,0.0398
-2.339e-03,14,0.0398,,-4.656e-04,0.0398
-2.336e-03,14,0.0398,,-4.640e-04,0.0398
-2.333e-03,14,0.0398,,-4.624e-04,0.0398
-2.330e-03,14,0.0398,,-4.608e-04,0.0398
-2.326e-03,14,0.0398,,-4.592e-04,0.0398
-2.323e-03,14,0.0398,,-4.576e-04,0.0398
-2.320e-03,14.0031,0.0398,,-4.560e-04,0.0398
-2.317e-03,14,0.0398,,-4.544e-04,0.0398
-2.314e-03,14,0.0398,,-4.528e-04,0.0398
-2.310e-03,14,0.0398,,-4.512e-04,0.0398
-2.307e-03,13.9969,0.0398,,-4.496e-04,0.0398
-2.304e-03,14,0.0398,,-4.480e-04,0.0398
-2.301e-03,14,0.0398,,-4.464e-04,0.0398
-2.298e-03,14,0.0398,,-4.448e-04,0.0398
-2.294e-03,14.0031,0.0398,,-4.432e-04,0.0398
-2.291e-03,14,0.0398,,-4.416e-04,0.0398
-2.288e-03,14.0031,0.0398,,-4.400e-04,0.0398
-2.285e-03,14,0.0398,,-4.384e-04,0.0398
-2.282e-03,14.0031,0.0398,,-4.368e-04,0.0398
-2.278e-03,14,0.0398,,-4.352e-04,0.0398
-2.275e-03,14,0.0398,,-4.336e-04,0.0398
-2.272e-03,14.0031,0.0398,,-4.320e-04,0.0398
-2.269e-03,14,0.0398,,-4.304e-04,0.0398
-2.266e-03,14.0031,0.0398,,-4.288e-04,0.0398
-2.262e-03,14.0031,0.0398,,-4.272e-04,0.0398
-2.259e-03,14,0.0398,,-4.256e-04,0.0398
-2.256e-03,13.9969,0.0398,,-4.240e-04,0.0398
-2.253e-03,14,0.0398,,-4.224e-04,0.0398
-2.250e-03,14,0.0398,,-4.208e-04,0.0398
-2.246e-03,14,0.0398,,-4.192e-04,0.0398
-2.243e-03,14,0.0398,,-4.176e-04,0.0398
-2.240e-03,14.0031,0.0398,,-4.160e-04,0.0398
-2.237e-03,14,0.0398,,-4.144e-04,0.0398
-2.234e-03,14,0.0398,,-4.128e-04,0.0398
-2.230e-03,14,0.0398,,-4.112e-04,0.0398
-2.227e-03,14,0.0398,,-4.096e-04,0.0398
-2.224e-03,14,0.0398,,-4.080e-04,0.0398
-2.221e-03,14.0031,0.0398,,-4.064e-04,0.0398
-2.218e-03,14,0.0398,,-4.048e-04,0.0398
-2.214e-03,14,0.0398,,-4.032e-04,0.0398
-2.211e-03,14,0.0398,,-4.016e-04,0.0398
-2.208e-03,14,0.0398,,-4.000e-04,0.0398
-2.205e-03,14,0.0398,,-3.984e-04,0.0398
-2.202e-03,14,0.0398,,-3.968e-04,0.0398
-2.198e-03,14.0031,0.0398,,-3.952e-04,0.0398
-2.195e-03,14.0031,0.0398,,-3.936e-04,0.0398
-2.192e-03,14.0031,0.0398,,-3.920e-04,0.0398
-2.189e-03,14.0031,0.0398,,-3.904e-04,0.0398
-2.186e-03,14.0031,0.0398,,-3.888e-04,0.0398
-2.182e-03,14.0031,0.0398,,-3.872e-04,0.0398
-2.179e-03,14.0031,0.0398,,-3.856e-04,0.0398
-2.176e-03,14.0031,0.0398,,-3.840e-04,0.0398
-2.173e-03,14.0031,0.0398,,-3.824e-04,0.0398
-2.170e-03,14.1687,0.0398,,-3.808e-04,0.0398
-2.166e-03,14.3344,0.0398,,-3.792e-04,0.0398
-2.163e-03,14.5375,0.0398,,-3.776e-04,0.0398
-2.160e-03,14.6281,0.0398,,-3.760e-04,0.0398
-2.157e-03,14.8,0.0398,,-3.744e-04,0.0398
-2.154e-03,14.8031,0.0398,,-3.728e-04,0.0398
-2.150e-03,14.8219,0.0398,,-3.712e-04,0.0398
-2.147e-03,15.6187,0.0398,,-3.696e-04,0.0398
-2.144e-03,16.4937,0.0398,,-3.680e-04,0.0398
-2.141e-03,18.05,0.0398,,-3.664e-04,0.0398
-2.138e-03,20.6687,0.0398,,-3.648e-04,0.0398
-2.134e-03,23.9625,0.0398,,-3.632e-04,0.0398
-2.131e-03,26.1469,0.0398,,-3.616e-04,0.0398
-2.128e-03,26.7781,0.0398,,-3.600e-04,0.0398
-2.125e-03,25.4094,0.0398,,-3.584e-04,0.0398
-2.122e-03,22.6469,0.0398,,-3.568e-04,0.0398
-2.118e-03,19.6625,0.0398,,-3.552e-04,0.0398
-2.115e-03,17.5875,0.0398,,-3.536e-04,0.0398
-2.112e-03,16.2312,0.0398,,-3.520e-04,0.0398
-2.109e-03,15.5125,0.0398,,-3.504e-04,0.0398
-2.106e-03,14.7969,0.0398,,-3.488e-04,0.0398
-2.102e-03,14.425,0.0398,,-3.472e-04,0.0398
-2.099e-03,14,0.0398,,-3.456e-04,0.0398
-2.096e-03,14,0.0398,,-3.440e-04,0.0398
-2.093e-03,14,0.0398,,-3.424e-04,0.0398
-2.090e-03,14.0031,0.0398,,-3.408e-04,0.0398
-2.086e-03,14,0.0398,,-3.392e-04,0.0398
-2.083e-03,14,0.0398,,-3.376e-04,0.0398
-2.080e-03,14,0.0398,,-3.360e-04,0.0398
-2.077e-03,14.0031,0.0398,,-3.344e-04,0.0398
-2.074e-03,14,0.0398,,-3.328e-04,0.0398
-2.070e-03,14,0.0398,,-3.312e-04,0.0398
-2.067e-03,14,0.0398,,-3.296e-04,0.0398
-2.064e-03,14.0031,0.0398,,-3.280e-04,0.0398
-2.061e-03,14,0.0398,,-3.264e-04,0.0398
-2.058e-03,14,0.0398,,-3.248e-04,0.0398
-2.054e-03,14,0.0398,,-3.232e-04,0.0398
-2.051e-03,14,0.0398,,-3.216e-04,0.0398
-2.048e-03,14,0.0398,,-3.200e-04,0.0398
-2.045e-03,14.0031,0.0398,,-3.184e-04,0.0398
-2.042e-03,14,0.0398,,-3.168e-04,0.0398
-2.038e-03,14,0.0398,,-3.152e-04,0.0398
-2.035e-03,14,0.0398,,-3.136e-04,0.0398
-2.032e-03,14.0031,0.0398,,-3.120e-04,0.0398
-2.029e-03,14,0.0398,,-3.104e-04,0.0398
-2.026e-03,14.0031,0.0398,,-3.088e-04,0.0398
-2.022e-03,14.0031,0.0398,,-3.072e-04,0.0398
-2.019e-03,14,0.0398,,-3.056e-04,0.0398
-2.016e-03,14,0.0398,,-3.040e-04,0.0398
-2.013e-03,14,0.0398,,-3.024e-04,0.0398
-2.010e-03,14,0.0398,,-3.008e-04,0.0398
-2.006e-03,13.9969,0.0398,,-2.992e-04,0.0398
-2.003e-03,14,0.0398,,-2.976e-04,0.0398
-2.000e-03,14,0.0398,,-2.960e-04,0.0398
-1.997e-03,14,0.0398,,-2.944e-04,0.0398
-1.994e-03,14,0.0398,,-2.928e-04,0.0398
-1.990e-03,14,0.0398,,-2.912e-04,0.0398
-1.987e-03,14,0.0398,,-2.896e-04,0.0398
-1.984e-03,14,0.0398,,-2.880e-04,0.0398
-1.981e-03,14,0.0398,,-2.864e-04,0.0398
-1.978e-03,14,0.0398,,-2.848e-04,0.0398
-1.974e-03,14,0.0398,,-2.832e-04,0.0398
-1.971e-03,14,0.0398,,-2.816e-04,0.0398
-1.968e-03,14,0.0398,,-2.800e-04,0.0398
-1.965e-03,14,0.0398,,-2.784e-04,0.0398
-1.962e-03,14,0.0398,,-2.768e-04,0.0398
-1.958e-03,13.9969,0.0398,,-2.752e-04,0.0398
-1.955e-03,14,0.0398,,-2.736e-04,0.0398
-1.952e-03,14,0.0398,,-2.720e-04,0.0398
-1.949e-03,14,0.0398,,-2.704e-04,0.0398
-1.946e-03,14,0.0398,,-2.688e-04,0.0398
-1.942e-03,14.0031,0.0398,,-2.672e-04,0.0398
-1.939e-03,14,0.0398,,-2.656e-04,0.0398
-1.936e-03,14,0.0398,,-2.640e-04,0.0398
-1.933e-03,14,0.0398,,-2.624e-04,0.0398
-1.930e-03,13.9969,0.0398,,-2.608e-04,0.0398
-1.926e-03,14,0.0398,,-2.592e-04,0.0398
-1.923e-03,14,0.0398,,-2.576e-04,0.0398
-1.920e-03,14.0031,0.0398,,-2.560e-04,0.0398
-1.917e-03,14,0.0398,,-2.544e-04,0.0398
-1.914e-03,13.9969,0.0398,,-2.528e-04,0.0398
-1.910e-03,14,0.0398,,-2.512e-04,0.0398
-1.907e-03,14,0.0398,,-2.496e-04,0.0398
-1.904e-03,14,0.0398,,-2.480e-04,0.0398
-1.901e-03,14,0.0398,,-2.464e-04,0.0398
-1.898e-03,14,0.0398,,-2.448e-04,0.0398
-1.894e-03,14,0.0398,,-2.432e-04,0.0398
-1.891e-03,14,0.0398,,-2.416e-04,0.0398
-1.888e-03,14,0.0398,,-2.400e-04,0.0398
-1.885e-03,14,0.0398,,-2.384e-04,0.0398
-1.882e-03,14,0.0398,,-2.368e-04,0.0398
-1.878e-03,14,0.0398,,-2.352e-04,0.0398
-1.875e-03,14,0.0398,,-2.336e-04,0.0398
-1.872e-03,14,0.0398,,-2.320e-04,0.0398
-1.869e-03,13.9969,0.0398,,-2.304e-04,0.0398
-1.866e-03,13.9969,0.0398,,-2.288e-04,0.0398
-1.862e-03,14,0.0398,,-2.272e-04,0.0398
-1.859e-03,14,0.0398,,-2.256e-04,0.0398
-1.856e-03,14,0.0398,,-2.240e-04,0.0398
-1.853e-03,14.0031,0.0398,,-2.224e-04,0.0398
-1.850e-03,14,0.0398,,-2.208e-04,0.0398
-1.846e-03,14,0.0398,,-2.192e-04,0.0398
-1.843e-03,14,0.0398,,-2.176e-04,0.0398
-1.840e-03,14,0.0398,,-2.160e-04,0.0398
-1.837e-03,14,0.0398,,-2.144e-04,0.0398
-1.834e-03,13.9969,0.0398,,-2.128e-04,0.0398
-1.830e-03,14,0.0398,,-2.112e-04,0.0398
-1.827e-03,14,0.0398,,-2.096e-04,0.0398
-1.824e-03,14,0.0398,,-2.080e-04,0.0398
-1.821e-03,14.0031,0.0398,,-2.064e-04,0.0398
-1.818e-03,14,0.0398,,-2.048e-04,0.0398
-1.814e-03,14,0.0398,,-2.032e-04,0.0398
-1.811e-03,14,0.0398,,-2.016e-04,0.0398
-1.808e-03,14.0031,0.0398,,-2.000e-04,0.0398
-1.805e-03,14,0.0398,,-1.984e-04,0.0398
-1.802e-03,13.9969,0.0398,,-1.968e-04,0.0398
-1.798e-03,14,0.0398,,-1.952e-04,0.0398
-1.795e-03,14.0031,0.0398,,-1.936e-04,0.0398
-1.792e-03,14,0.0398,,-1.920e-04,0.0398
-1.789e-03,13.9937,0.0398,,-1.904e-04,0.0398
-1.786e-03,13.9937,0.0398,,-1.888e-04,0.0398
-1.782e-03,14,0.0398,,-1.872e-04,0.0398
-1.779e-03,14,0.0398,,-1.856e-04,0.0398
-1.776e-03,14,0.0398,,-1.840e-04,0.0398
-1.773e-03,14,0.0398,,-1.824e-04,0.0398
-1.770e-03,14,0.0398,,-1.808e-04,0.0398
-1.766e-03,14,0.0398,,-1.792e-04,0.0398
-1.763e-03,14,0.0398,,-1.776e-04,0.0398
-1.760e-03,14,0.0398,,-1.760e-04,0.0398
-1.757e-03,14.0031,0.0398,,-1.744e-04,0.0398
-1.754e-03,14,0.0398,,-1.728e-04,0.0398
-1.750e-03,14,0.0398,,-1.712e-04,0.0398
-1.747e-03,14,0.0398,,-1.696e-04,0.0398
-1.744e-03,14,0.0398,,-1.680e-04,0.0398
-1.741e-03,13.9969,0.0398,,-1.664e-04,0.0398
-1.738e-03,14,0.0398,,-1.648e-04,0.0398
-1.734e-03,14,0.0398,,-1.632e-04,0.0398
-1.731e-03,14,0.0398,,-1.616e-04,0.0398
-1.728e-03,14,0.0398,,-1.600e-04,0.0398
-1.725e-03,14,0.0398,,-1.584e-04,0.0398
-1.722e-03,14,0.0398,,-1.568e-04,0.0398
-1.718e-03,14,0.0398,,-1.552e-04,0.0398
-1.715e-03,14.0031,0.0398,,-1.536e-04,0.0398
-1.712e-03,13.9937,0.0398,,-1.520e-04,0.0398
-1.709e-03,14,0.0398,,-1.504e-04,0.0398
-1.706e-03,14,0.0398,,-1.488e-04,0.0398
-1.702e-03,14,0.0398,,-1.472e-04,0.0398
-1.699e-03,14,0.0398,,-1.456e-04,0.0398
-1.696e-03,14,0.0398,,-1.440e-04,0.0398
-1.693e-03,14,0.0398,,-1.424e-04,0.0398
-1.690e-03,14,0.0398,,-1.408e-04,0.0398
-1.686e-03,14,0.0398,,-1.392e-04,0.0398
-1.683e-03,14,0.0398,,-1.376e-04,0.0398
-1.680e-03,14,0.0398,,-1.360e-04,0.0398
-1.677e-03,14,0.0398,,-1.344e-04,0.0398
-1.674e-03,14,0.0398,,-1.328e-04,0.0398
-1.670e-03,14,0.0398,,-1.312e-04,0.0398
-1.667e-03,14,0.0398,,-1.296e-04,0.0398
-1.664e-03,14,0.0398,,-1.280e-04,0.0398
-1.661e-03,14,0.0398,,-1.264e-04,0.0398
-1.658e-03,14,0.0398,,-1.248e-04,0.0398
-1.654e-03,13.9969,0.0398,,-1.232e-04,0.0398
-1.651e-03,13.9969,0.0398,,-1.216e-04,0.0398
-1.648e-03,14,0.0398,,-1.200e-04,0.0398
-1.645e-03,13.9969,0.0398,,-1.184e-04,0.0398
-1.642e-03,13.9969,0.0398,,-1.168e-04,0.0398
-1.638e-03,14,0.0398,,-1.152e-04,0.0398
-1.635e-03,13.9969,0.0398,,-1.136e-04,0.0398
-1.632e-03,14,0.0398,,-1.120e-04,0.0398
-1.629e-03,14,0.0398,,-1.104e-04,0.0398
-1.626e-03,14,0.0398,,-1.088e-04,0.0398
-1.622e-03,13.9969,0.0398,,-1.072e-04,0.0398
-1.619e-03,14,0.0398,,-1.056e-04,0.0398
-1.616e-03,13.9969,0.0398,,-1.040e-04,0.0398
-1.613e-03,14,0.0398,,-1.024e-04,0.0398
-1.610e-03,14,0.0398,,-1.008e-04,0.0398
-1.606e-03,14,0.0398,,-9.920e-05,0.0398
-1.603e-03,14,0.0398,,-9.760e-05,0.0398
-1.600e-03,14,0.0398,,-9.600e-05,0.0398
-1.597e-03,14,0.0398,,-9.440e-05,0.0398
-1.594e-03,14,0.0398,,-9.280e-05,0.0398
-1.590e-03,14,0.0398,,-9.120e-05,0.0398
-1.587e-03,14,0.0398,,-8.960e-05,0.0398
-1.584e-03,14.0031,0.0398,,-8.800e-05,0.0398
-1.581e-03,14.0031,0.0398,,-8.640e-05,0.0398
-1.578e-03,14,0.0398,,-8.480e-05,0.0398
-1.574e-03,14,0.0398,,-8.320e-05,0.0398
-1.571e-03,14,0.0398,,-8.160e-05,0.0398
-1.568e-03,14,0.0398,,-8.000e-05,0.0398
-1.565e-03,14,0.0398,,-7.840e-05,0.0398
-1.562e-03,14.0031,0.0398,,-7.680e-05,0.0398
-1.558e-03,14,0.0398,,-7.520e-05,0.0398
-1.555e-03,14.0031,0.0398,,-7.360e-05,0.0398
-1.552e-03,14,0.0398,,-7.200e-05,0.0398
-1.549e-03,14,0.0398,,-7.040e-05,0.0398
-1.546e-03,13.9969,0.0398,,-6.880e-05,0.0398
-1.542e-03,14,0.0398,,-6.720e-05,0.0398
-1.539e-03,14.0031,0.0398,,-6.560e-05,0.0398
-1.536e-03,14,0.0398,,-6.400e-05,0.0398
-1.533e-03,14,0.0398,,-6.240e-05,0.0398
-1.530e-03,14,0.0398,,-6.080e-05,0.0398
-1.526e-03,14.0031,0.0398,,-5.920e-05,0.0398
-1.523e-03,14,0.0398,,-5.760e-05,0.0398
-1.520e-03,14,0.0398,,-5.600e-05,0.0398
-1.517e-03,14.0031,0.0398,,-5.440e-05,0.0398
-1.514e-03,14,0.0398,,-5.280e-05,0.0398
-1.510e-03,14,0.0398,,-5.120e-05,0.0398
-1.507e-03,14,0.0398,,-4.960e-05,0.0398
-1.504e-03,14,0.0398,,-4.800e-05,0.0398
-1.501e-03,14,0.0398,,-4.640e-05,0.0398
-1.498e-03,14,0.0398,,-4.480e-05,0.0398
-1.494e-03,14.0031,0.0398,,-4.320e-05,0.0398
-1.491e-03,14,0.0398,,-4.160e-05,0.0398
-1.488e-03,14,0.0398,,-4.000e-05,0.0398
-1.485e-03,14.0031,0.0398,,-3.840e-05,0.0398
-1.482e-03,14,0.0398,,-3.680e-05,0.0398
-1.478e-03,14,0.0398,,-3.520e-05,0.0398
-1.475e-03,14.0031,0.0398,,-3.360e-05,0.0398
-1.472e-03,14,0.0398,,-3.200e-05,0.0398
-1.469e-03,14.0031,0.0398,,-3.040e-05,0.0398
-1.466e-03,14,0.0398,,-2.880e-05,0.0398
-1.462e-03,14,0.0398,,-2.720e-05,0.0398
-1.459e-03,14,0.0398,,-2.560e-05,0.0398
-1.456e-03,14.0031,0.0398,,-2.400e-05,0.0398
-1.453e-03,14.0031,0.0398,,-2.240e-05,0.0398
-1.450e-03,14,0.0398,,-2.080e-05,0.0398
-1.446e-03,14.0031,0.0398,,-1.920e-05,0.0398
-1.443e-03,14,0.0398,,-1.760e-05,0.0398
-1.440e-03,14.0031,0.0398,,-1.600e-05,0.0398
-1.437e-03,14.0031,0.0398,,-1.440e-05,0.0398
-1.434e-03,14.0031,0.0398,,-1.280e-05,0.0398
-1.430e-03,14.0031,0.0398,,-1.120e-05,0.0398
-1.427e-03,14,0.0398,,-9.600e-06,0.0398
-1.424e-03,14,0.0398,,-8.000e-06,0.0398
-1.421e-03,14.0031,0.0398,,-6.400e-06,0.0398
-1.418e-03,14.0031,0.0398,,-4.800e-06,0.0398
-1.414e-03,14.0031,0.0398,,-3.200e-06,0.0398
-1.411e-03,14,0.0398,,-1.600e-06,0.0398
-1.408e-03,14,0.0398,,2.795e-18,0.0398
-1.405e-03,14,0.0398,,1.600e-06,0.0398
-1.402e-03,14,0.0398,,3.200e-06,0.0398
-1.398e-03,14.0031,0.0398,,4.800e-06,0.0398
-1.395e-03,14.0031,0.0398,,6.400e-06,0.0398
-1.392e-03,14.0031,0.0398,,8.000e-06,0.0398
-1.389e-03,14,0.0398,,9.600e-06,0.0398
-1.386e-03,14.0031,0.0398,,1.120e-05,0.0398
-1.382e-03,14.0031,0.0398,,1.280e-05,0.0398
-1.379e-03,14.0031,0.0398,,1.440e-05,0.0398
-1.376e-03,14.0031,0.0398,,1.600e-05,0.0398
-1.373e-03,14,0.0398,,1.760e-05,0.0398
-1.370e-03,14.0031,0.0398,,1.920e-05,0.0398
-1.366e-03,14.0031,0.0398,,2.080e-05,0.0398
-1.363e-03,14.0031,0.0398,,2.240e-05,0.0398
-1.360e-03,14.0031,0.0398,,2.400e-05,0.0398
-1.357e-03,14.0031,0.0398,,2.560e-05,0.0398
-1.354e-03,14.0031,0.0398,,2.720e-05,0.0398
-1.350e-03,14,0.0398,,2.880e-05,0.0398
-1.347e-03,14.0031,0.0398,,3.040e-05,0.0398
-1.344e-03,14.2187,0.0398,,3.200e-05,0.0398
-1.341e-03,14.2531,0.0398,,3.360e-05,0.0398
-1.338e-03,14.3156,0.0398,,3.520e-05,0.0398
-1.334e-03,14.4719,0.0398,,3.680e-05,0.0398
-1.331e-03,14.5844,0.0398,,3.840e-05,0.0398
-1.328e-03,14.6437,0.0398,,4.000e-05,0.0398
-1.325e-03,14.7406,0.0398,,4.160e-05,0.0398
-1.322e-03,14.8,0.0398,,4.320e-05,0.0398
-1.318e-03,14.8031,0.0398,,4.480e-05,0.0398
-1.315e-03,14.8031,0.0398,,4.640e-05,0.0398
-1.312e-03,14.8031,0.0398,,4.800e-05,0.0398
-1.309e-03,14.8156,0.0398,,4.960e-05,0.0398
-1.306e-03,15.2344,0.0398,,5.120e-05,0.0398
-1.302e-03,15.5969,0.0398,,5.280e-05,0.0398
-1.299e-03,15.6031,0.0398,,5.440e-05,0.0398
-1.296e-03,15.6281,0.0398,,5.600e-05,0.0398
-1.293e-03,16.4031,0.0398,,5.760e-05,0.0398
-1.290e-03,16.5375,0.0398,,5.920e-05,0.0398
-1.286e-03,17.3844,0.0398,,6.080e-05,0.0398
-1.283e-03,18.4187,0.0398,,6.240e-05,0.0398
-1.280e-03,20.1187,0.0398,,6.400e-05,0.0398
-1.277e-03,22.8312,0.0398,,6.560e-05,0.0398
-1.274e-03,27.1531,0.0398,,6.720e-05,0.0398
-1.270e-03,35.675,0.0398,,6.880e-05,0.0398
-1.267e-03,51.7062,0.0398,,7.040e-05,0.0398
-1.264e-03,76.6219,0.0398,,7.200e-05,0.0398
-1.261e-03,103.309,0.0398,,7.360e-05,0.0398
-1.258e-03,118.1,0.0398,,7.520e-05,0.0398
