06_Rb_spectroscopy/data/TEK1.CSV

Model,TBS2074B
Firmware Version,v1.31.16

Point Format,Y,
Horizontal Units,S,
Horizontal Scale,0.0002,
Sample Interval,1.6e-06,
Filter Frequency,2e+08,
Record Length,2000,
Gating,0.0% to 100.0%,0.0% to 100.0%
Probe Attenuation,10,10
Vertical Units,V,V
Vertical Offset,0,0
Vertical Scale,5,0.02
Label,,
TIME,CH1,CH2
-6.640e-04,-0.299218,0.101641
-6.624e-04,-0.299218,0.101575
-6.608e-04,-0.299218,0.101397
-6.592e-04,-0.299218,0.101409
-6.576e-04,-0.299218,0.101372
-6.560e-04,-0.3,0.101331
-6.544e-04,-0.299218,0.101366
-6.528e-04,-0.299218,0.101306
-6.512e-04,-0.299218,0.101334
-6.496e-04,-0.299218,0.101341
-6.480e-04,-0.299218,0.101269
-6.464e-04,-0.299218,0.101247
-6.448e-04,-0.299218,0.101256
-6.432e-04,-0.299218,0.101191
-6.416e-04,-0.299218,0.101253
-6.400e-04,-0.299218,0.101231
-6.384e-04,-0.3,0.101219
-6.368e-04,-0.3,0.101228
-6.352e-04,-0.299218,0.101212
-6.336e-04,-0.298437,0.101175
-6.320e-04,-0.299218,0.101219
-6.304e-04,-0.299218,0.101197
-6.288e-04,-0.299218,0.101194
-6.272e-04,-0.299218,0.101194
-6.256e-04,-0.299218,0.101025
-6.240e-04,-0.3,0.100934
-6.224e-04,-0.299218,0.1008
-6.208e-04,-0.299218,0.1008
-6.192e-04,-0.299218,0.100653
-6.176e-04,-0.299218,0.100628
-6.160e-04,-0.299218,0.100516
-6.144e-04,-0.299218,0.100547
-6.128e-04,-0.299218,0.100531
-6.112e-04,-0.299218,0.1005
-6.096e-04,-0.299218,0.100491
-6.080e-04,-0.299218,0.100472
-6.064e-04,-0.299218,0.10045
-6.048e-04,-0.299218,0.100425
-6.032e-04,-0.299218,0.100422
-6.016e-04,-0.299218,0.100459
-6.000e-04,-0.299218,0.100447
-5.984e-04,-0.299218,0.100444
-5.968e-04,-0.299218,0.100437
-5.952e-04,-0.299218,0.100416
-5.936e-04,-0.299218,0.100406
-5.920e-04,-0.299218,0.10035
-5.904e-04,-0.299218,0.100184
-5.888e-04,-0.299218,0.10005
-5.872e-04,-0.299218,0.100069
-5.856e-04,-0.299218,0.100066
-5.840e-04,-0.299218,0.0999344
-5.824e-04,-0.299218,0.0998625
-5.808e-04,-0.299218,0.0996937
-5.792e-04,-0.299218,0.0997344
-5.776e-04,-0.299218,0.0996844
-5.760e-04,-0.299218,0.0996594
-5.744e-04,-0.299218,0.0997062
-5.728e-04,-0.299218,0.0996875
-5.712e-04,-0.299218,0.0996406
-5.696e-04,-0.3,0.0996281
-5.680e-04,-0.299218,0.0996625
-5.664e-04,-0.299218,0.0996156
-5.648e-04,-0.3,0.0996625
-5.632e-04,-0.299218,0.0996031
-5.616e-04,-0.299218,0.0996187
-5.600e-04,-0.299218,0.0996375
-5.584e-04,-0.3,0.0996
-5.568e-04,-0.3,0.0995844
-5.552e-04,-0.299218,0.0994656
-5.536e-04,-0.299218,0.0993187
-5.520e-04,-0.299218,0.0993469
-5.504e-04,-0.299218,0.0993156
-5.488e-04,-0.299218,0.0990875
-5.472e-04,-0.299218,0.0989437
-5.456e-04,-0.299218,0.098975
-5.440e-04,-0.299218,0.098975
-5.424e-04,-0.299218,0.0989469
-5.408e-04,-0.299218,0.0988875
-5.392e-04,-0.299218,0.0988875
-5.376e-04,-0.299218,0.0989094
-5.360e-04,-0.299218,0.0988812
-5.344e-04,-0.299218,0.0988437
-5.328e-04,-0.299218,0.0988281
-5.312e-04,-0.299218,0.0988125
-5.296e-04,-0.299218,0.0988406
-5.280e-04,-0.298437,0.0988625
-5.264e-04,-0.299218,0.0988156
-5.248e-04,-0.299218,0.0988187
-5.232e-04,-0.299218,0.0987812
-5.216e-04,-0.299218,0.0985531
-5.200e-04,-0.299218,0.0986125
-5.184e-04,-0.299218,0.0984531
-5.168e-04,-0.299218,0.0983906
-5.152e-04,-0.299218,0.0981781
-5.136e-04,-0.299218,0.0982594
-5.120e-04,-0.299218,0.0980562
-5.104e-04,-0.299218,0.0981906
-5.088e-04,-0.298437,0.0980844
-5.072e-04,-0.3,0.0980812
-5.056e-04,-0.299218,0.09805
-5.040e-04,-0.299218,0.0980437
-5.024e-04,-0.297656,0.0980594
-5.008e-04,-0.299218,0.0980156
-4.992e-04,-0.298437,0.0980406
-4.976e-04,-0.299218,0.0980469
-4.960e-04,-0.299218,0.0980062
-4.944e-04,-0.299218,0.0979969
-4.928e-04,-0.299218,0.098
-4.912e-04,-0.299218,0.0978812
-4.896e-04,-0.299218,0.0977812
-4.880e-04,-0.298437,0.0976219
-4.864e-04,-0.299218,0.0975562
-4.848e-04,-0.299218,0.0973281
-4.832e-04,-0.29375,0.0973469
-4.816e-04,-0.298437,0.0973906
-4.800e-04,-0.298437,0.0972656
-4.784e-04,-0.294531,0.0972437
-4.768e-04,-0.298437,0.0972437
-4.752e-04,-0.299218,0.0972531
-4.736e-04,-0.294531,0.0972312
-4.720e-04,-0.296093,0.0972312
-4.704e-04,-0.295312,0.0972031
-4.688e-04,-0.289062,0.0972219
-4.672e-04,-0.294531,0.0971937
-4.656e-04,-0.292968,0.0970687
-4.640e-04,-0.289843,0.0971125
-4.624e-04,-0.285156,0.0969187
-4.608e-04,-0.292968,0.0968094
-4.592e-04,-0.286718,0.0966656
-4.576e-04,-0.285156,0.0965187
-4.560e-04,-0.2875,0.096475
-4.544e-04,-0.284375,0.0964656
-4.528e-04,-0.271093,0.0964281
-4.512e-04,-0.259375,0.0964312
-4.496e-04,-0.267187,0.0964062
-4.480e-04,-0.255468,0.0964156
-4.464e-04,-0.242968,0.0964344
-4.448e-04,-0.242968,0.0964156
-4.432e-04,-0.227343,0.0963812
-4.416e-04,-0.201562,0.0963969
-4.400e-04,-0.199218,0.0962906
-4.384e-04,-0.204687,0.0962219
-4.368e-04,-0.184375,0.0959187
-4.352e-04,-0.185156,0.0957812
-4.336e-04,-0.157812,0.0956656
-4.320e-04,-0.139062,0.095725
-4.304e-04,-0.151562,0.0956937
-4.288e-04,-0.13125,0.0956406
-4.272e-04,-0.116406,0.0956094
-4.256e-04,-0.0999995,0.0955969
-4.240e-04,-0.0992183,0.0956156
-4.224e-04,-0.0999995,0.0956062
-4.208e-04,-0.0999995,0.0955812
-4.192e-04,-0.0999995,0.0955937
-4.176e-04,-0.0992183,0.0954906
-4.160e-04,-0.0999995,0.0952969
-4.144e-04,-0.0992183,0.0952344
-4.128e-04,-0.0999995,0.0950156
-4.112e-04,-0.0992183,0.0949531
-4.096e-04,-0.0992183,0.0948281
-4.080e-04,-0.0992183,0.0948406
-4.064e-04,-0.0992183,0.0947937
-4.048e-04,-0.098437,0.0947969
-4.032e-04,-0.0992183,0.0947875
-4.016e-04,-0.0937495,0.0947875
-4.000e-04,-0.0710933,0.0947844
-3.984e-04,-0.0226558,0.0947812
-3.968e-04,0.0554692,0.0947875
-3.952e-04,0.100782,0.0947937
-3.936e-04,0.102344,0.0946531
-3.920e-04,0.127344,0.0944469
-3.904e-04,0.227344,0.0943156
-3.888e-04,0.308594,0.0941031
-3.872e-04,0.385157,0.0940719
-3.856e-04,0.527344,0.0940781
-3.840e-04,0.707032,0.0940219
-3.824e-04,0.923438,0.0940656
-3.808e-04,1.17578,0.0940062
-3.792e-04,1.52109,0.0940344
-3.776e-04,1.87734,0.0939937
-3.760e-04,2.21406,0.0940281
-3.744e-04,2.48984,0.0939844
-3.728e-04,2.63281,0.0938844
-3.712e-04,2.71484,0.0937906
-3.696e-04,2.73047,0.0935406
-3.680e-04,2.7,0.0933812
-3.664e-04,2.54141,0.0933
-3.648e-04,2.39531,0.0932687
-3.632e-04,2.17656,0.0932562
-3.616e-04,1.88438,0.0932
-3.600e-04,1.64063,0.0932281
-3.584e-04,1.3625,0.0931937
-3.568e-04,1.10703,0.0931969
-3.552e-04,0.911719,0.0932
-3.536e-04,0.745313,0.0931969
-3.520e-04,0.61875,0.0930625
-3.504e-04,0.486719,0.0930125
-3.488e-04,0.403907,0.0928031
-3.472e-04,0.304688,0.0925656
-3.456e-04,0.246094,0.0924562
-3.440e-04,0.178125,0.0924375
-3.424e-04,0.128125,0.092425
-3.408e-04,0.0960942,0.0924594
-3.392e-04,0.079688,0.0924656
-3.376e-04,0.0617192,0.0924375
-3.360e-04,0.020313,0.0924187
-3.344e-04,-0.0187495,0.0923906
-3.328e-04,-0.0601558,0.0923062
-3.312e-04,-0.0945308,0.0923687
-3.296e-04,-0.0999995,0.0919187
-3.280e-04,-0.0999995,0.0916875
-3.264e-04,-0.100781,0.0916906
-3.248e-04,-0.100781,0.0916562
-3.232e-04,-0.0999995,0.0916281
-3.216e-04,-0.100781,0.0916031
-3.200e-04,-0.103906,0.0916281
-3.184e-04,-0.100781,0.0916219
-3.168e-04,-0.102343,0.0915875
-3.152e-04,-0.102343,0.0915812
-3.136e-04,-0.100781,0.0913812
-3.120e-04,-0.102343,0.0912
-3.104e-04,-0.1125,0.0909937
-3.088e-04,-0.102343,0.0908094
-3.072e-04,-0.117968,0.0908187
-3.056e-04,-0.108593,0.0907969
-3.040e-04,-0.114062,0.0908031
-3.024e-04,-0.123437,0.0908219
-3.008e-04,-0.121875,0.0908156
-2.992e-04,-0.121875,0.0907719
-2.976e-04,-0.123437,0.0906094
-2.960e-04,-0.13125,0.0905
-2.944e-04,-0.130468,0.0904
-2.928e-04,-0.126562,0.090075
-2.912e-04,-0.142187,0.0900625
-2.896e-04,-0.130468,0.0900312
-2.880e-04,-0.140625,0.0899937
-2.864e-04,-0.147656,0.0900219
-2.848e-04,-0.1375,0.0899875
-2.832e-04,-0.147656,0.0899969
-2.816e-04,-0.146875,0.0899906
-2.800e-04,-0.151562,0.0899656
-2.784e-04,-0.148437,0.0897531
-2.768e-04,-0.14375,0.0894156
-2.752e-04,-0.153125,0.0892937
-2.736e-04,-0.149218,0.089225
-2.720e-04,-0.146875,0.089225
-2.704e-04,-0.151562,0.0892375
-2.688e-04,-0.157812,0.0892219
-2.672e-04,-0.157812,0.0891906
-2.656e-04,-0.1625,0.0892062
-2.640e-04,-0.15,0.0891937
-2.624e-04,-0.167968,0.0890219
-2.608e-04,-0.157031,0.0887094
-2.592e-04,-0.167187,0.0884594
-2.576e-04,-0.176562,0.0884156
-2.560e-04,-0.18125,0.0884094
-2.544e-04,-0.1875,0.0883969
-2.528e-04,-0.178125,0.0884094
-2.512e-04,-0.178906,0.0884187
-2.496e-04,-0.197656,0.0883812
-2.480e-04,-0.182031,0.0883469
-2.464e-04,-0.205468,0.0880187
-2.448e-04,-0.207031,0.087775
-2.432e-04,-0.232031,0.0876031
-2.416e-04,-0.235937,0.0876187
-2.400e-04,-0.2625,0.0875906
-2.384e-04,-0.234375,0.0875969
-2.368e-04,-0.284375,0.0875594
-2.352e-04,-0.290625,0.0875969
-2.336e-04,-0.286718,0.0875781
-2.320e-04,-0.3,0.0874719
-2.304e-04,-0.292968,0.0870594
-2.288e-04,-0.288281,0.086825
-2.272e-04,-0.299218,0.086825
-2.256e-04,-0.286718,0.0868062
-2.240e-04,-0.299218,0.0867937
-2.224e-04,-0.299218,0.0868156
-2.208e-04,-0.3,0.0867687
-2.192e-04,-0.299218,0.0867781
-2.176e-04,-0.299218,0.0867781
-2.160e-04,-0.299218,0.0865937
-2.144e-04,-0.299218,0.0862875
-2.128e-04,-0.299218,0.0860625
-2.112e-04,-0.299218,0.0860594
-2.096e-04,-0.299218,0.0859937
-2.080e-04,-0.299218,0.086
-2.064e-04,-0.299218,0.086
-2.048e-04,-0.299218,0.0859937
-2.032e-04,-0.299218,0.0859906
-2.016e-04,-0.299218,0.0859844
-2.000e-04,-0.299218,0.0853187
-1.984e-04,-0.299218,0.0851906
-1.968e-04,-0.299218,0.085225
-1.952e-04,-0.299218,0.0852187
-1.936e-04,-0.299218,0.0851937
-1.920e-04,-0.299218,0.0851781
-1.904e-04,-0.3,0.0851625
-1.888e-04,-0.299218,0.0851687
-1.872e-04,-0.299218,0.0851375
-1.856e-04,-0.299218,0.0847625
-1.840e-04,-0.299218,0.0844062
-1.824e-04,-0.299218,0.0844062
-1.808e-04,-0.299218,0.0843937
-1.792e-04,-0.299218,0.0843875
-1.776e-04,-0.299218,0.0843844
-1.760e-04,-0.299218,0.0843687
-1.744e-04,-0.299218,0.0843625
-1.728e-04,-0.299218,0.0842687
-1.712e-04,-0.299218,0.0838406
-1.696e-04,-0.299218,0.0836
-1.680e-04,-0.299218,0.0836094
-1.664e-04,-0.299218,0.0835969
-1.648e-04,-0.299218,0.0835781
-1.632e-04,-0.299218,0.0835781
-1.616e-04,-0.299218,0.083525
-1.600e-04,-0.299218,0.0835219
-1.584e-04,-0.299218,0.0830906
-1.568e-04,-0.299218,0.0828344
-1.552e-04,-0.299218,0.0828156
-1.536e-04,-0.299218,0.0827937
-1.520e-04,-0.299218,0.0827781
-1.504e-04,-0.299218,0.0827531
-1.488e-04,-0.299218,0.0827469
-1.472e-04,-0.299218,0.0826656
-1.456e-04,-0.299218,0.0821687
-1.440e-04,-0.299218,0.0819937
-1.424e-04,-0.299218,0.0819844
-1.408e-04,-0.299218,0.0819875
-1.392e-04,-0.299218,0.0819812
-1.376e-04,-0.299218,0.0819656
-1.360e-04,-0.299218,0.0819344
-1.344e-04,-0.299218,0.0816781
-1.328e-04,-0.299218,0.0812062
-1.312e-04,-0.299218,0.0811937
-1.296e-04,-0.299218,0.081175
-1.280e-04,-0.299218,0.0811937
-1.264e-04,-0.299218,0.0811687
-1.248e-04,-0.299218,0.0811469
-1.232e-04,-0.3,0.0811062
-1.216e-04,-0.299218,0.0808937
-1.200e-04,-0.299218,0.08045
-1.184e-04,-0.3,0.0804375
-1.168e-04,-0.299218,0.0803844
-1.152e-04,-0.299218,0.080375
-1.136e-04,-0.299218,0.0803594
-1.120e-04,-0.299218,0.0803156
-1.104e-04,-0.3,0.0802594
-1.088e-04,-0.299218,0.0799437
-1.072e-04,-0.299218,0.0795906
-1.056e-04,-0.299218,0.0795812
-1.040e-04,-0.299218,0.0795781
-1.024e-04,-0.299218,0.0795687
-1.008e-04,-0.299218,0.0794937
-9.920e-05,-0.299218,0.0794406
-9.760e-05,-0.299218,0.0793094
-9.600e-05,-0.299218,0.0788094
-9.440e-05,-0.299218,0.0787937
-9.280e-05,-0.299218,0.0787906
-9.120e-05,-0.299218,0.078775
-8.960e-05,-0.299218,0.0786812
-8.800e-05,-0.299218,0.0787031
-8.640e-05,-0.299218,0.0784656
-8.480e-05,-0.299218,0.0779969
-8.320e-05,-0.299218,0.0779844
-8.160e-05,-0.299218,0.0779844
-8.000e-05,-0.299218,0.0779875
-7.840e-05,-0.299218,0.0779781
-7.680e-05,-0.299218,0.0779594
-7.520e-05,-0.299218,0.0778219
-7.360e-05,-0.299218,0.0774531
-7.200e-05,-0.299218,0.0772156
-7.040e-05,-0.299218,0.0771937
-6.880e-05,-0.299218,0.0771875
-6.720e-05,-0.299218,0.0771844
-6.560e-05,-0.299218,0.0771344
-6.400e-05,-0.299218,0.0770406
-6.240e-05,-0.299218,0.0768062
-6.080e-05,-0.299218,0.0764094
-5.920e-05,-0.299218,0.0763687
-5.760e-05,-0.299218,0.0763875
-5.600e-05,-0.299218,0.0763687
-5.440e-05,-0.299218,0.0763125
-5.280e-05,-0.299218,0.0761344
-5.120e-05,-0.299218,0.0759312
-4.960e-05,-0.299218,0.0755875
-4.800e-05,-0.299218,0.0755937
-4.640e-05,-0.299218,0.0755812
-4.480e-05,-0.299218,0.0755062
-4.320e-05,-0.299218,0.0754969
-4.160e-05,-0.299218,0.0754781
-4.000e-05,-0.299218,0.0752031
-3.840e-05,-0.299218,0.0747844
-3.680e-05,-0.299218,0.0747812
-3.520e-05,-0.299218,0.0747687
-3.360e-05,-0.299218,0.0747625
-3.200e-05,-0.299218,0.0745906
-3.040e-05,-0.299218,0.074475
-2.880e-05,-0.299218,0.0739875
-2.720e-05,-0.299218,0.073975
-2.560e-05,-0.299218,0.073975
-2.400e-05,-0.299218,0.0739437
-2.240e-05,-0.299218,0.0738094
-2.080e-05,-0.299218,0.0736687
-1.920e-05,-0.299218,0.0734719
-1.760e-05,-0.298437,0.0731781
-1.600e-05,-0.299218,0.0731719
-1.440e-05,-0.299218,0.073125
-1.280e-05,-0.299218,0.0730312
-1.120e-05,-0.299218,0.0729844
-9.600e-06,-0.299218,0.0726719
-8.000e-06,-0.299218,0.0723656
-6.400e-06,-0.299218,0.0723719
-4.800e-06,-0.299218,0.0723687
-3.200e-06,-0.298437,0.0723656
-1.600e-06,-0.299218,0.0722406
2.795e-18,-0.3,0.0720937
1.600e-06,-0.299218,0.0717531
3.200e-06,-0.299218,0.0715625
4.800e-06,-0.299218,0.0715312
6.400e-06,-0.299218,0.07145
8.000e-06,-0.299218,0.0713844
9.600e-06,-0.299218,0.0711719
1.120e-05,-0.299218,0.0708312
1.280e-05,-0.299218,0.0707812
1.440e-05,-0.298437,0.0707844
1.600e-05,-0.299218,0.0707562
1.760e-05,-0.299218,0.0705937
1.920e-05,-0.299218,0.0703812
2.080e-05,-0.299218,0.0699812
2.240e-05,-0.299218,0.069975
2.400e-05,-0.299218,0.0699594
2.560e-05,-0.299218,0.0698937
2.720e-05,-0.299218,0.0697437
2.880e-05,-0.299218,0.0695344
3.040e-05,-0.299218,0.0691719
3.200e-05,-0.299218,0.0691719
3.360e-05,-0.3,0.0691031
3.520e-05,-0.299218,0.0690281
3.680e-05,-0.299218,0.0688531
3.840e-05,-0.3,0.0686156
4.000e-05,-0.3,0.0683969
4.160e-05,-0.299218,0.0683625
4.320e-05,-0.299218,0.068325
4.480e-05,-0.3,0.0681344
4.640e-05,-0.299218,0.0680156
4.800e-05,-0.299218,0.0675969
4.960e-05,-0.299218,0.0675812
5.120e-05,-0.299218,0.0675812
5.280e-05,-0.299218,0.0674187
5.440e-05,-0.299218,0.0672562
5.600e-05,-0.299218,0.0671844
5.760e-05,-0.299218,0.0667844
5.920e-05,-0.299218,0.0667562
6.080e-05,-0.299218,0.0666344
6.240e-05,-0.299218,0.0666781
6.400e-05,-0.3,0.0665469
6.560e-05,-0.299218,0.0661594
6.720e-05,-0.299218,0.0659625
6.880e-05,-0.299218,0.0659437
7.040e-05,-0.299218,0.0658187
7.200e-05,-0.299218,0.0656687
7.360e-05,-0.299218,0.0655156
7.520e-05,-0.299218,0.0651906
7.680e-05,-0.299218,0.0651656
7.840e-05,-0.299218,0.0651437
8.000e-05,-0.299218,0.0649937
8.160e-05,-0.299218,0.0648406
8.320e-05,-0.3,0.0645219
8.480e-05,-0.299218,0.0643625
8.640e-05,-0.299218,0.0643375
8.800e-05,-0.299218,0.0642312
8.960e-05,-0.3,0.0640531
9.120e-05,-0.299218,0.0637219
9.280e-05,-0.299218,0.0635844
9.440e-05,-0.299218,0.0635812
9.600e-05,-0.299218,0.0634594
9.760e-05,-0.299218,0.0634094
9.920e-05,-0.299218,0.063225
1.008e-04,-0.299218,0.0628875
1.024e-04,-0.299218,0.0627812
1.040e-04,-0.299218,0.0627531
1.056e-04,-0.299218,0.0626281
1.072e-04,-0.299218,0.0624781
1.088e-04,-0.3,0.0621281
1.104e-04,-0.299218,0.0619812
1.120e-04,-0.299218,0.0619594
1.136e-04,-0.3,0.0618562
1.152e-04,-0.298437,0.0617281
1.168e-04,-0.299218,0.0615062
1.184e-04,-0.299218,0.0611969
1.200e-04,-0.299218,0.0611625
1.216e-04,-0.299218,0.0611094
1.232e-04,-0.299218,0.0608844
1.248e-04,-0.299218,0.0607187
1.264e-04,-0.299218,0.0604406
1.280e-04,-0.299218,0.0603594
1.296e-04,-0.299218,0.0603062
1.312e-04,-0.299218,0.060225
1.328e-04,-0.299218,0.0598406
1.344e-04,-0.3,0.0596406
1.360e-04,-0.299218,0.0595594
1.376e-04,-0.299218,0.0594844
1.392e-04,-0.299218,0.0593625
1.408e-04,-0.299218,0.0592375
1.424e-04,-0.299218,0.0588031
1.440e-04,-0.299218,0.0587594
1.456e-04,-0.299218,0.0587562
1.472e-04,-0.298437,0.0586187
1.488e-04,-0.299218,0.0584156
1.504e-04,-0.299218,0.0581781
1.520e-04,-0.299218,0.0579531
1.536e-04,-0.299218,0.057875
1.552e-04,-0.3,0.0577125
1.568e-04,-0.299218,0.0575844
1.584e-04,-0.299218,0.0573656
1.600e-04,-0.299218,0.0571531
1.616e-04,-0.299218,0.0571312
1.632e-04,-0.299218,0.0569937
1.648e-04,-0.299218,0.0566281
1.664e-04,-0.299218,0.0564281
1.680e-04,-0.299218,0.0563437
1.696e-04,-0.299218,0.0563062
1.712e-04,-0.299218,0.0560687
1.728e-04,-0.299218,0.0559094
1.744e-04,-0.299218,0.055575
1.760e-04,-0.299218,0.0555656
1.776e-04,-0.299218,0.0554656
1.792e-04,-0.299218,0.0552062
1.808e-04,-0.299218,0.0550625
1.824e-04,-0.3,0.0547875
1.840e-04,-0.299218,0.0547531
1.856e-04,-0.299218,0.0546094
1.872e-04,-0.299218,0.0544594
1.888e-04,-0.299218,0.0542406
1.904e-04,-0.298437,0.0539906
1.920e-04,-0.3,0.0539094
1.936e-04,-0.299218,0.0537375
1.952e-04,-0.299218,0.0536031
1.968e-04,-0.299218,0.0533312
1.984e-04,-0.299218,0.0531844
2.000e-04,-0.299218,0.0531062
2.016e-04,-0.3,0.0529562
2.032e-04,-0.299218,0.0526625
2.048e-04,-0.299218,0.052475
2.064e-04,-0.299218,0.0523594
2.080e-04,-0.299218,0.0522156
2.096e-04,-0.299218,0.0519906
2.112e-04,-0.299218,0.0519156
2.128e-04,-0.299218,0.0516156
2.144e-04,-0.299218,0.0515656
2.160e-04,-0.299218,0.0514344
2.176e-04,-0.299218,0.0512344
2.192e-04,-0.3,0.050975
2.208e-04,-0.299218,0.050775
2.224e-04,-0.299218,0.0506187
2.240e-04,-0.299218,0.0504219
2.256e-04,-0.299218,0.0503625
2.272e-04,-0.299218,0.0500469
2.288e-04,-0.299218,0.0499187
2.304e-04,-0.299218,0.0498719
2.320e-04,-0.299218,0.0496469
2.336e-04,-0.299218,0.0493344
2.352e-04,-0.299218,0.0491719
2.368e-04,-0.299218,0.0491562
2.384e-04,-0.299218,0.0488719
2.400e-04,-0.299218,0.0487469
2.416e-04,-0.299218,0.0483594
2.432e-04,-0.299218,0.0483281
2.448e-04,-0.299218,0.0481969
2.464e-04,-0.299218,0.0479687
2.480e-04,-0.299218,0.0476969
2.496e-04,-0.299218,0.04755
2.512e-04,-0.299218,0.0474687
2.528e-04,-0.299218,0.0473656
2.544e-04,-0.299218,0.0471062
2.560e-04,-0.298437,0.0467937
2.576e-04,-0.299218,0.0467031
2.592e-04,-0.296093,0.0465719
2.608e-04,-0.298437,0.0463656
2.624e-04,-0.299218,0.0461469
2.640e-04,-0.299218,0.0459781
2.656e-04,-0.299218,0.0459156
2.672e-04,-0.299218,0.0457125
2.688e-04,-0.299218,0.0455094
2.704e-04,-0.299218,0.0451875
2.720e-04,-0.299218,0.0451656
2.736e-04,-0.297656,0.0450281
2.752e-04,-0.298437,0.0448875
2.768e-04,-0.3,0.0447187
2.784e-04,-0.299218,0.0444156
2.800e-04,-0.299218,0.04435
2.816e-04,-0.298437,0.0441719
2.832e-04,-0.298437,0.0440656
2.848e-04,-0.299218,0.0437781
2.864e-04,-0.299218,0.0435719
2.880e-04,-0.297656,0.0433094
2.896e-04,-0.299218,0.0431656
2.912e-04,-0.3,0.0429812
2.928e-04,-0.299218,0.0427844
2.944e-04,-0.297656,0.0426656
2.960e-04,-0.294531,0.0425906
2.976e-04,-0.299218,0.0423187
2.992e-04,-0.297656,0.0420156
3.008e-04,-0.299218,0.0418969
3.024e-04,-0.299218,0.0417844
3.040e-04,-0.299218,0.0415187
3.056e-04,-0.296093,0.0413094
3.072e-04,-0.296875,0.0411656
3.088e-04,-0.295312,0.0410281
3.104e-04,-0.292968,0.0408094
3.120e-04,-0.296093,0.040675
3.136e-04,-0.291406,0.0403812
3.152e-04,-0.295312,0.0403094
3.168e-04,-0.290625,0.0401156
3.184e-04,-0.294531,0.039925
3.200e-04,-0.289843,0.0396094
3.216e-04,-0.2875,0.0395531
3.232e-04,-0.292187,0.0393469
3.248e-04,-0.278906,0.0391625
3.264e-04,-0.278125,0.0389844
3.280e-04,-0.272656,0.038775
3.296e-04,-0.288281,0.0386312
3.312e-04,-0.282812,0.0384281
3.328e-04,-0.278125,0.0381937
3.344e-04,-0.286718,0.0380219
3.360e-04,-0.275781,0.037925
3.376e-04,-0.270312,0.037775
3.392e-04,-0.267968,0.0375625
3.408e-04,-0.275781,0.0372687
3.424e-04,-0.24375,0.0371406
3.440e-04,-0.280468,0.0369344
3.456e-04,-0.249218,0.0366219
3.472e-04,-0.235937,0.0365156
3.488e-04,-0.259375,0.0362906
3.504e-04,-0.23125,0.0361219
3.520e-04,-0.238281,0.035825
3.536e-04,-0.213281,0.0358031
3.552e-04,-0.19375,0.0355625
3.568e-04,-0.233593,0.0354031
3.584e-04,-0.199218,0.035125
3.600e-04,-0.200781,0.0349937
3.616e-04,-0.194531,0.03475
3.632e-04,-0.228125,0.0346156
3.648e-04,-0.148437,0.0343594
3.664e-04,-0.178125,0.0341719
3.680e-04,-0.157031,0.0339969
3.696e-04,-0.167968,0.0337625
3.712e-04,-0.1375,0.0335094
3.728e-04,-0.146875,0.0332406
3.744e-04,-0.141406,0.0331031
3.760e-04,-0.102343,0.0330406
3.776e-04,-0.105468,0.0326531
3.792e-04,-0.105468,0.0324187
3.808e-04,-0.121875,0.0323094
